EESchema Schematic File Version 4
LIBS:ncn5100rh-1-cache
EELAYER 30 0
EELAYER END
$Descr A4 11693 8268
encoding utf-8
Sheet 1 1
Title "KNX Raspberry Pi hat"
Date "2019-11-21"
Rev "1a"
Comp ""
Comment1 "Author: Tijl Schepens"
Comment2 ""
Comment3 ""
Comment4 ""
$EndDescr
$Comp
L Device:R R7
U 1 1 5DD325A3
P 2750 3200
F 0 "R7" V 2650 3150 50  0000 C CNN
F 1 "27E" V 2700 3400 50  0000 C CNN
F 2 "Resistor_SMD:R_2512_6332Metric" V 2680 3200 50  0001 C CNN
F 3 "~" H 2750 3200 50  0001 C CNN
F 4 "352027RJT" V 2750 3200 50  0001 C CNN "PartNumber"
	1    2750 3200
	0    1    1    0   
$EndComp
$Comp
L ON_Semiconductor:NCN5130MNTWG U1
U 1 1 5DD402D7
P 4700 3450
F 0 "U1" H 5550 4200 50  0000 C CNN
F 1 "NCN5130MNTWG" H 4700 3450 50  0000 C CNN
F 2 "ON_Semiconductor:CASE485AU−01" H 5450 4300 50  0001 C CNN
F 3 "https://www.onsemi.com/pub/Collateral/NCN5130-D.PDF" H 5450 4300 50  0001 C CNN
F 4 "Mouser" H 3500 2600 50  0001 C CNN "Supplier1"
F 5 "863-NCN5130MNTWG" H 3750 2500 50  0001 C CNN "Supplier Par Number1"
F 6 "NCN5130MNTWG" H 4700 3450 50  0001 C CNN "PartNumber"
	1    4700 3450
	1    0    0    -1  
$EndComp
$Comp
L power:GND #PWR010
U 1 1 5DD410E0
P 3500 2750
F 0 "#PWR010" H 3500 2500 50  0001 C CNN
F 1 "GND" H 3505 2577 50  0000 C CNN
F 2 "" H 3500 2750 50  0001 C CNN
F 3 "" H 3500 2750 50  0001 C CNN
	1    3500 2750
	1    0    0    -1  
$EndComp
$Comp
L power:+3.3V #PWR05
U 1 1 5DD41625
P 4250 2150
F 0 "#PWR05" H 4250 2000 50  0001 C CNN
F 1 "+3.3V" H 4265 2323 50  0000 C CNN
F 2 "" H 4250 2150 50  0001 C CNN
F 3 "" H 4250 2150 50  0001 C CNN
	1    4250 2150
	1    0    0    -1  
$EndComp
$Comp
L power:+9V #PWR028
U 1 1 5DD422A8
P 4000 4550
F 0 "#PWR028" H 4000 4400 50  0001 C CNN
F 1 "+9V" H 4015 4723 50  0000 C CNN
F 2 "" H 4000 4550 50  0001 C CNN
F 3 "" H 4000 4550 50  0001 C CNN
	1    4000 4550
	1    0    0    -1  
$EndComp
$Comp
L Device:C C7
U 1 1 5DD45AD2
P 3300 3600
F 0 "C7" V 3250 3700 50  0000 C CNN
F 1 "220nF" V 3250 3250 50  0000 C CNN
F 2 "Capacitor_SMD:C_0603_1608Metric" H 3338 3450 50  0001 C CNN
F 3 "~" H 3300 3600 50  0001 C CNN
F 4 "50V" V 3250 3450 50  0000 C CNN "Voltage"
F 5 "C1608X5R1H224K080AB" V 3300 3600 50  0001 C CNN "PartNumber"
F 6 "TDK" V 3300 3600 50  0001 C CNN "Manufacturer"
	1    3300 3600
	0    1    1    0   
$EndComp
$Comp
L Device:CP C10
U 1 1 5DD47010
P 3100 4150
F 0 "C10" H 3150 4250 50  0000 L CNN
F 1 "47uF" H 3150 4050 50  0000 L CNN
F 2 "Capacitor_SMD:C_Elec_6.3x5.4" H 3138 4000 50  0001 C CNN
F 3 "~" H 3100 4150 50  0001 C CNN
F 4 "35V" H 3250 3950 50  0000 C CNN "Voltage"
F 5 "865080543009" H 3100 4150 50  0001 C CNN "PartNumber"
F 6 "Wurth Elektronik" H 3100 4150 50  0001 C CNN "Manufacturer"
	1    3100 4150
	1    0    0    -1  
$EndComp
$Comp
L Device:C C9
U 1 1 5DD47EC0
P 2700 4150
F 0 "C9" H 2800 4150 50  0000 L CNN
F 1 "100nF" H 2800 4050 50  0000 L CNN
F 2 "Capacitor_SMD:C_0603_1608Metric" H 2738 4000 50  0001 C CNN
F 3 "~" H 2700 4150 50  0001 C CNN
F 4 "885012206095" H 2700 4150 50  0001 C CNN "PartNumber"
F 5 "50V" H 2900 3950 50  0000 C CNN "Voltage"
F 6 "Wurth Elektronik" H 2700 4150 50  0001 C CNN "Manufacturer"
	1    2700 4150
	1    0    0    -1  
$EndComp
$Comp
L Device:C C6
U 1 1 5DD485D7
P 3200 3300
F 0 "C6" V 3150 3100 50  0000 C CNN
F 1 "47nF" V 3250 3150 50  0000 C CNN
F 2 "Capacitor_SMD:C_0603_1608Metric" H 3238 3150 50  0001 C CNN
F 3 "~" H 3200 3300 50  0001 C CNN
F 4 "50V" V 3250 3450 50  0000 C CNN "Voltage"
F 5 "885012206093" V 3200 3300 50  0001 C CNN "PartNumber"
F 6 "Wurth Elektronik" V 3200 3300 50  0001 C CNN "Manufacturer"
	1    3200 3300
	0    1    1    0   
$EndComp
$Comp
L Device:C C3
U 1 1 5DD4B170
P 3850 2400
F 0 "C3" V 3700 2400 50  0000 C CNN
F 1 "100nF" V 4000 2400 50  0000 C CNN
F 2 "Capacitor_SMD:C_0603_1608Metric" H 3888 2250 50  0001 C CNN
F 3 "~" H 3850 2400 50  0001 C CNN
F 4 "885012206020" V 3850 2400 50  0001 C CNN "PartNumber"
F 5 "Wurth Elektronik" V 3850 2400 50  0001 C CNN "Manufacturer"
	1    3850 2400
	0    1    1    0   
$EndComp
$Comp
L Device:C C11
U 1 1 5DD4EE14
P 3550 4150
F 0 "C11" H 3665 4241 50  0000 L CNN
F 1 "1uF" H 3665 4150 50  0000 L CNN
F 2 "Capacitor_SMD:C_0805_2012Metric" H 3588 4000 50  0001 C CNN
F 3 "~" H 3550 4150 50  0001 C CNN
F 4 "50V" H 3665 4059 50  0000 L CNN "Voltage"
F 5 "885012207103" H 3550 4150 50  0001 C CNN "PartNumber"
F 6 "Wurth Elektronik" H 3550 4150 50  0001 C CNN "Manufacturer"
	1    3550 4150
	1    0    0    -1  
$EndComp
$Comp
L power:GND #PWR022
U 1 1 5DD56511
P 2200 4300
F 0 "#PWR022" H 2200 4050 50  0001 C CNN
F 1 "GND" H 2205 4127 50  0000 C CNN
F 2 "" H 2200 4300 50  0001 C CNN
F 3 "" H 2200 4300 50  0001 C CNN
	1    2200 4300
	1    0    0    -1  
$EndComp
$Comp
L power:GND #PWR023
U 1 1 5DD56A1F
P 2700 4300
F 0 "#PWR023" H 2700 4050 50  0001 C CNN
F 1 "GND" H 2705 4127 50  0000 C CNN
F 2 "" H 2700 4300 50  0001 C CNN
F 3 "" H 2700 4300 50  0001 C CNN
	1    2700 4300
	1    0    0    -1  
$EndComp
$Comp
L power:GND #PWR024
U 1 1 5DD56CA3
P 3100 4300
F 0 "#PWR024" H 3100 4050 50  0001 C CNN
F 1 "GND" H 3105 4127 50  0000 C CNN
F 2 "" H 3100 4300 50  0001 C CNN
F 3 "" H 3100 4300 50  0001 C CNN
	1    3100 4300
	1    0    0    -1  
$EndComp
$Comp
L power:GND #PWR025
U 1 1 5DD56F7B
P 3550 4300
F 0 "#PWR025" H 3550 4050 50  0001 C CNN
F 1 "GND" H 3555 4127 50  0000 C CNN
F 2 "" H 3550 4300 50  0001 C CNN
F 3 "" H 3550 4300 50  0001 C CNN
	1    3550 4300
	1    0    0    -1  
$EndComp
Wire Wire Line
	3800 3900 3550 3900
Wire Wire Line
	3550 3900 3550 4000
Wire Wire Line
	3100 3800 3100 4000
Wire Wire Line
	2700 4000 2700 3800
Wire Wire Line
	2700 3800 3100 3800
Connection ~ 3100 3800
Wire Wire Line
	3050 3700 3050 3600
Wire Wire Line
	3050 3600 3150 3600
Wire Wire Line
	2550 3300 2550 3200
Wire Wire Line
	2550 3500 2550 3300
Connection ~ 2550 3300
Wire Wire Line
	3800 3400 2200 3400
Wire Wire Line
	2200 3400 2200 4000
Wire Wire Line
	3700 2400 3500 2400
Wire Wire Line
	3500 2400 3500 2650
Wire Wire Line
	3500 2650 3700 2650
Wire Wire Line
	3700 2650 3700 3000
Wire Wire Line
	3700 3100 3800 3100
Connection ~ 3500 2650
Wire Wire Line
	3500 2650 3500 2750
Wire Wire Line
	3800 3000 3700 3000
Connection ~ 3700 3000
Wire Wire Line
	3700 3000 3700 3100
Wire Wire Line
	4000 2400 4100 2400
Wire Wire Line
	4250 2400 4250 2550
Wire Wire Line
	4250 2150 4250 2400
Connection ~ 4250 2400
$Comp
L Device:R R1
U 1 1 5DD73624
P 4050 1700
F 0 "R1" V 3950 1650 50  0000 C CNN
F 1 "10k" V 4150 1650 50  0000 C CNN
F 2 "Resistor_SMD:R_0603_1608Metric" V 3980 1700 50  0001 C CNN
F 3 "~" H 4050 1700 50  0001 C CNN
F 4 "ERJ-3EKF1002V" V 4050 1700 50  0001 C CNN "PartNumber"
	1    4050 1700
	0    1    1    0   
$EndComp
Wire Wire Line
	4450 2550 4450 1700
Wire Wire Line
	4450 1700 4200 1700
$Comp
L power:GND #PWR04
U 1 1 5DD74B23
P 3500 1800
F 0 "#PWR04" H 3500 1550 50  0001 C CNN
F 1 "GND" H 3505 1627 50  0000 C CNN
F 2 "" H 3500 1800 50  0001 C CNN
F 3 "" H 3500 1800 50  0001 C CNN
	1    3500 1800
	1    0    0    -1  
$EndComp
Wire Wire Line
	3900 1700 3500 1700
Wire Wire Line
	3500 1700 3500 1800
$Comp
L Device:D D1
U 1 1 5DD7ACA7
P 1900 3200
F 0 "D1" H 1950 3100 50  0000 C CNN
F 1 "SS16" H 1750 3150 50  0000 C CNN
F 2 "Diode_SMD:D_SMA" H 1900 3200 50  0001 C CNN
F 3 "~" H 1900 3200 50  0001 C CNN
F 4 "SS16T3G" H 1900 3200 50  0001 C CNN "PartNumber"
F 5 "ON Semiconductor" H 1900 3200 50  0001 C CNN "Manufacturer"
	1    1900 3200
	-1   0    0    1   
$EndComp
$Comp
L Device:D_TVS D2
U 1 1 5DD7BC42
P 1550 3600
F 0 "D2" V 1504 3679 50  0000 L CNN
F 1 "1SMA40CA" V 1595 3679 50  0000 L CNN
F 2 "Diode_SMD:D_SMA" H 1550 3600 50  0001 C CNN
F 3 "~" H 1550 3600 50  0001 C CNN
F 4 "SZ1SMA40CAT3G" V 1550 3600 50  0001 C CNN "PartNumber"
F 5 "Littelfuse" V 1550 3600 50  0001 C CNN "Manufacturer"
	1    1550 3600
	0    1    1    0   
$EndComp
$Comp
L power:GND #PWR021
U 1 1 5DD7CF78
P 1550 4300
F 0 "#PWR021" H 1550 4050 50  0001 C CNN
F 1 "GND" H 1555 4127 50  0000 C CNN
F 2 "" H 1550 4300 50  0001 C CNN
F 3 "" H 1550 4300 50  0001 C CNN
	1    1550 4300
	1    0    0    -1  
$EndComp
Wire Wire Line
	1550 3750 1550 4300
Wire Wire Line
	2550 3200 2050 3200
Wire Wire Line
	1550 3200 1550 3450
$Comp
L Connector:Conn_01x02_Male J2
U 1 1 5DD7F2D5
P 950 3200
F 0 "J2" H 1058 3381 50  0000 C CNN
F 1 "243-211" H 1058 3290 50  0000 C CNN
F 2 "Ettinger:13.14.125" H 950 3200 50  0001 C CNN
F 3 "~" H 950 3200 50  0001 C CNN
F 4 "13.14.125" H 950 3200 50  0001 C CNN "PartNumber"
F 5 "Farnell" H 950 3200 50  0001 C CNN "Supplier1"
F 6 "2691437" H 950 3200 50  0001 C CNN "Supplier Part Number1"
	1    950  3200
	1    0    0    -1  
$EndComp
$Comp
L power:GND #PWR016
U 1 1 5DD7FCDB
P 1250 3450
F 0 "#PWR016" H 1250 3200 50  0001 C CNN
F 1 "GND" H 1255 3277 50  0000 C CNN
F 2 "" H 1250 3450 50  0001 C CNN
F 3 "" H 1250 3450 50  0001 C CNN
	1    1250 3450
	1    0    0    -1  
$EndComp
Wire Wire Line
	1150 3300 1250 3300
Wire Wire Line
	1250 3300 1250 3450
Wire Wire Line
	1150 3200 1550 3200
Connection ~ 1550 3200
$Comp
L Device:C C2
U 1 1 5DD88C29
P 5150 1300
F 0 "C2" H 5400 1300 50  0000 R CNN
F 1 "15pF" H 5400 1400 50  0000 R CNN
F 2 "Capacitor_SMD:C_0603_1608Metric" H 5188 1150 50  0001 C CNN
F 3 "~" H 5150 1300 50  0001 C CNN
F 4 "885012006003" H 5150 1300 50  0001 C CNN "PartNumber"
F 5 "Wurth Elektronik" H 5150 1300 50  0001 C CNN "Manufacturer"
	1    5150 1300
	-1   0    0    1   
$EndComp
$Comp
L Device:C C1
U 1 1 5DD88F6C
P 4750 1300
F 0 "C1" H 5000 1300 50  0000 R CNN
F 1 "15pF" H 5000 1400 50  0000 R CNN
F 2 "Capacitor_SMD:C_0603_1608Metric" H 4788 1150 50  0001 C CNN
F 3 "~" H 4750 1300 50  0001 C CNN
F 4 "885012006003" H 4750 1300 50  0001 C CNN "PartNumber"
F 5 "Wurth Elektronik" H 4750 1300 50  0001 C CNN "Manufacturer"
	1    4750 1300
	-1   0    0    1   
$EndComp
$Comp
L Device:R R20
U 1 1 5DD8B856
P 4000 5500
F 0 "R20" H 3930 5454 50  0000 R CNN
F 1 "7k5" H 3930 5545 50  0000 R CNN
F 2 "Resistor_SMD:R_0603_1608Metric" V 3930 5500 50  0001 C CNN
F 3 "~" H 4000 5500 50  0001 C CNN
F 4 "0603WAF1502T5E" H 4000 5500 50  0001 C CNN "PartNumber"
	1    4000 5500
	-1   0    0    1   
$EndComp
$Comp
L Device:R R19
U 1 1 5DD8BD90
P 4000 5100
F 0 "R19" H 3930 5054 50  0000 R CNN
F 1 "51k" H 3930 5145 50  0000 R CNN
F 2 "Resistor_SMD:R_0603_1608Metric" V 3930 5100 50  0001 C CNN
F 3 "~" H 4000 5100 50  0001 C CNN
F 4 "ERJ-3EKF1002V" H 4000 5100 50  0001 C CNN "PartNumber"
	1    4000 5100
	-1   0    0    1   
$EndComp
$Comp
L Device:C C13
U 1 1 5DD8C114
P 3650 5300
F 0 "C13" H 3765 5346 50  0000 L CNN
F 1 "10uF" H 3765 5255 50  0000 L CNN
F 2 "Capacitor_SMD:C_0603_1608Metric" H 3688 5150 50  0001 C CNN
F 3 "~" H 3650 5300 50  0001 C CNN
F 4 "885012106006" H 3650 5300 50  0001 C CNN "PartNumber"
F 5 "Wurth Elektronik" H 3650 5300 50  0001 C CNN "Manufacturer"
	1    3650 5300
	1    0    0    -1  
$EndComp
$Comp
L Device:C C12
U 1 1 5DD8C4EB
P 5450 4900
F 0 "C12" H 5565 4946 50  0000 L CNN
F 1 "10uF" H 5565 4855 50  0000 L CNN
F 2 "Capacitor_SMD:C_0603_1608Metric" H 5488 4750 50  0001 C CNN
F 3 "~" H 5450 4900 50  0001 C CNN
F 4 "885012106006" H 5450 4900 50  0001 C CNN "PartNumber"
F 5 "Wurth Elektronik" H 5450 4900 50  0001 C CNN "Manufacturer"
	1    5450 4900
	1    0    0    -1  
$EndComp
$Comp
L Device:L L2
U 1 1 5DD8CBCB
P 4850 4850
F 0 "L2" V 4900 4950 50  0000 L CNN
F 1 "220uH" V 4900 4500 50  0000 L CNN
F 2 "Wurth-Elektronic:WE-TPC" H 4850 4850 50  0001 C CNN
F 3 "~" H 4850 4850 50  0001 C CNN
F 4 "744043221" V 4800 4850 50  0000 C CNN "PartNumber"
F 5 "Wurth Elektronik" V 4850 4850 50  0001 C CNN "Manufacturer"
	1    4850 4850
	1    0    0    -1  
$EndComp
$Comp
L Device:L L1
U 1 1 5DD8D1CD
P 4650 4850
F 0 "L1" V 4700 4950 50  0000 L CNN
F 1 "220uH" V 4700 4500 50  0000 L CNN
F 2 "Wurth-Elektronic:WE-TPC" H 4650 4850 50  0001 C CNN
F 3 "~" H 4650 4850 50  0001 C CNN
F 4 "744043221" V 4650 4850 50  0001 C CNN "PartNumber"
F 5 "Wurth Elektronik" V 4650 4850 50  0001 C CNN "Manufacturer"
	1    4650 4850
	1    0    0    -1  
$EndComp
$Comp
L power:GND #PWR036
U 1 1 5DD9E91B
P 4000 5750
F 0 "#PWR036" H 4000 5500 50  0001 C CNN
F 1 "GND" H 4005 5577 50  0000 C CNN
F 2 "" H 4000 5750 50  0001 C CNN
F 3 "" H 4000 5750 50  0001 C CNN
	1    4000 5750
	1    0    0    -1  
$EndComp
$Comp
L Device:R R17
U 1 1 5DD9ED82
P 4450 4850
F 0 "R17" V 4500 5100 50  0000 R CNN
F 1 "1E" V 4400 5050 50  0000 R CNN
F 2 "Resistor_SMD:R_0603_1608Metric" V 4380 4850 50  0001 C CNN
F 3 "~" H 4450 4850 50  0001 C CNN
F 4 "RC0603FR-071RL" V 4450 4850 50  0001 C CNN "PartNumber"
F 5 "Yageo" V 4450 4850 50  0001 C CNN "Manufacturer"
	1    4450 4850
	-1   0    0    1   
$EndComp
Wire Wire Line
	4350 5200 4450 5200
Wire Wire Line
	4450 5200 4450 5000
Wire Wire Line
	4650 5000 4650 5200
Wire Wire Line
	4650 5200 4450 5200
Connection ~ 4450 5200
Wire Wire Line
	4250 5300 4000 5300
Wire Wire Line
	4000 5300 4000 5250
Wire Wire Line
	4000 5750 4000 5650
Wire Wire Line
	4000 5350 4000 5300
Connection ~ 4000 5300
Wire Wire Line
	4000 4950 4000 4900
$Comp
L power:GND #PWR026
U 1 1 5DDB494B
P 4550 4350
F 0 "#PWR026" H 4550 4100 50  0001 C CNN
F 1 "GND" V 4500 4200 50  0000 C CNN
F 2 "" H 4550 4350 50  0001 C CNN
F 3 "" H 4550 4350 50  0001 C CNN
	1    4550 4350
	1    0    0    -1  
$EndComp
$Comp
L power:GND #PWR027
U 1 1 5DDB4ED8
P 4950 4350
F 0 "#PWR027" H 4950 4100 50  0001 C CNN
F 1 "GND" H 4955 4177 50  0000 C CNN
F 2 "" H 4950 4350 50  0001 C CNN
F 3 "" H 4950 4350 50  0001 C CNN
	1    4950 4350
	1    0    0    -1  
$EndComp
Wire Wire Line
	4750 4350 4750 4600
Wire Wire Line
	3350 4600 3350 3800
Wire Wire Line
	4250 4350 4250 5300
Wire Wire Line
	4350 5200 4350 4350
Wire Wire Line
	4450 4350 4450 4650
Wire Wire Line
	4650 4350 4650 4700
$Comp
L Device:R R18
U 1 1 5DDE3D5C
P 5050 4850
F 0 "R18" V 5100 5100 50  0000 R CNN
F 1 "1E" V 5000 5050 50  0000 R CNN
F 2 "Resistor_SMD:R_0603_1608Metric" V 4980 4850 50  0001 C CNN
F 3 "~" H 5050 4850 50  0001 C CNN
F 4 "RC0603FR-071RL" V 5050 4850 50  0001 C CNN "PartNumber"
F 5 "Yageo" V 5050 4850 50  0001 C CNN "Manufacturer"
	1    5050 4850
	-1   0    0    1   
$EndComp
Wire Wire Line
	4850 4350 4850 4700
Wire Wire Line
	5050 4350 5050 4650
Wire Wire Line
	5150 4350 5150 5200
Wire Wire Line
	5150 5200 5050 5200
Wire Wire Line
	4850 5200 4850 5000
Wire Wire Line
	5050 5000 5050 5200
Connection ~ 5050 5200
Wire Wire Line
	5050 5200 4850 5200
$Comp
L power:+3.3V #PWR029
U 1 1 5DDEE686
P 5450 4600
F 0 "#PWR029" H 5450 4450 50  0001 C CNN
F 1 "+3.3V" H 5465 4773 50  0000 C CNN
F 2 "" H 5450 4600 50  0001 C CNN
F 3 "" H 5450 4600 50  0001 C CNN
	1    5450 4600
	1    0    0    -1  
$EndComp
$Comp
L power:GND #PWR032
U 1 1 5DDF78D2
P 5450 5150
F 0 "#PWR032" H 5450 4900 50  0001 C CNN
F 1 "GND" H 5455 4977 50  0000 C CNN
F 2 "" H 5450 5150 50  0001 C CNN
F 3 "" H 5450 5150 50  0001 C CNN
	1    5450 5150
	1    0    0    -1  
$EndComp
Wire Wire Line
	5450 4650 5450 4600
Connection ~ 5050 4650
Wire Wire Line
	5050 4650 5050 4700
Wire Wire Line
	5450 4650 5450 4750
Connection ~ 5450 4650
Wire Wire Line
	5450 5150 5450 5050
$Comp
L power:GND #PWR035
U 1 1 5DE04F44
P 3650 5750
F 0 "#PWR035" H 3650 5500 50  0001 C CNN
F 1 "GND" H 3655 5577 50  0000 C CNN
F 2 "" H 3650 5750 50  0001 C CNN
F 3 "" H 3650 5750 50  0001 C CNN
	1    3650 5750
	1    0    0    -1  
$EndComp
Wire Wire Line
	3650 5750 3650 5450
Wire Wire Line
	3650 5150 3650 4950
Wire Wire Line
	3650 4900 4000 4900
Connection ~ 4000 4900
Wire Wire Line
	4000 4550 4000 4650
Wire Wire Line
	4000 4650 4450 4650
Connection ~ 4000 4650
Connection ~ 4450 4650
Wire Wire Line
	4450 4650 4450 4700
$Comp
L power:GND #PWR020
U 1 1 5DE0EEF4
P 5750 4250
F 0 "#PWR020" H 5750 4000 50  0001 C CNN
F 1 "GND" H 5755 4077 50  0000 C CNN
F 2 "" H 5750 4250 50  0001 C CNN
F 3 "" H 5750 4250 50  0001 C CNN
	1    5750 4250
	1    0    0    -1  
$EndComp
Wire Wire Line
	5050 4650 5450 4650
Wire Wire Line
	5750 4150 5750 4250
Wire Wire Line
	4850 2550 4850 2100
Wire Wire Line
	4850 2100 5150 2100
$Comp
L power:GND #PWR01
U 1 1 5DE3F9B9
P 5500 1200
F 0 "#PWR01" H 5500 950 50  0001 C CNN
F 1 "GND" H 5505 1027 50  0000 C CNN
F 2 "" H 5500 1200 50  0001 C CNN
F 3 "" H 5500 1200 50  0001 C CNN
	1    5500 1200
	1    0    0    -1  
$EndComp
Wire Wire Line
	4750 1050 5150 1050
Wire Wire Line
	5500 1050 5500 1200
Wire Wire Line
	4750 1050 4750 1150
Wire Wire Line
	5150 1150 5150 1050
Connection ~ 5150 1050
Wire Wire Line
	5150 1050 5500 1050
$Comp
L power:GND #PWR09
U 1 1 5DE488A1
P 5400 2400
F 0 "#PWR09" H 5400 2150 50  0001 C CNN
F 1 "GND" H 5405 2227 50  0000 C CNN
F 2 "" H 5400 2400 50  0001 C CNN
F 3 "" H 5400 2400 50  0001 C CNN
	1    5400 2400
	1    0    0    -1  
$EndComp
$Comp
L Device:C C4
U 1 1 5DE48BF7
P 5950 2650
F 0 "C4" H 5835 2604 50  0000 R CNN
F 1 "100nF" H 5835 2695 50  0000 R CNN
F 2 "Capacitor_SMD:C_0603_1608Metric" H 5988 2500 50  0001 C CNN
F 3 "~" H 5950 2650 50  0001 C CNN
F 4 "885012206020" H 5950 2650 50  0001 C CNN "PartNumber"
F 5 "Wurth Elektronik" H 5950 2650 50  0001 C CNN "Manufacturer"
	1    5950 2650
	-1   0    0    1   
$EndComp
Wire Wire Line
	5150 2350 5150 2550
Wire Wire Line
	5400 2400 5400 2350
Wire Wire Line
	5400 2350 5150 2350
$Comp
L power:+3.3V #PWR08
U 1 1 5DE54C59
P 5950 2350
F 0 "#PWR08" H 5950 2200 50  0001 C CNN
F 1 "+3.3V" H 5965 2523 50  0000 C CNN
F 2 "" H 5950 2350 50  0001 C CNN
F 3 "" H 5950 2350 50  0001 C CNN
	1    5950 2350
	1    0    0    -1  
$EndComp
$Comp
L power:GND #PWR012
U 1 1 5DE6FF70
P 5950 2800
F 0 "#PWR012" H 5950 2550 50  0001 C CNN
F 1 "GND" H 5955 2627 50  0000 C CNN
F 2 "" H 5950 2800 50  0001 C CNN
F 3 "" H 5950 2800 50  0001 C CNN
	1    5950 2800
	1    0    0    -1  
$EndComp
Wire Wire Line
	5600 3000 5750 3000
Wire Wire Line
	5750 3000 5750 2400
Wire Wire Line
	5750 2400 5950 2400
Wire Wire Line
	5950 2400 5950 2350
Wire Wire Line
	5950 2400 5950 2500
Connection ~ 5950 2400
Wire Wire Line
	5600 3600 5700 3600
Wire Wire Line
	5600 3400 5700 3400
Wire Wire Line
	5600 3100 5700 3100
Wire Wire Line
	5600 4150 5700 4150
Wire Wire Line
	5600 3700 5700 3700
Wire Wire Line
	5700 3700 5700 4150
Connection ~ 5700 4150
Wire Wire Line
	5700 4150 5750 4150
Wire Wire Line
	5700 3600 5700 3700
Connection ~ 5700 3700
Wire Wire Line
	5600 3500 5700 3500
Wire Wire Line
	5700 3500 5700 3600
Connection ~ 5700 3600
$Comp
L Device:R R15
U 1 1 5DECE747
P 6300 4300
F 0 "R15" H 6230 4254 50  0000 R CNN
F 1 "0E" H 6230 4345 50  0000 R CNN
F 2 "Resistor_SMD:R_0603_1608Metric" V 6230 4300 50  0001 C CNN
F 3 "~" H 6300 4300 50  0001 C CNN
F 4 "0603WAF0000T5E" H 6300 4300 50  0001 C CNN "PartNumber"
	1    6300 4300
	-1   0    0    1   
$EndComp
Text Label 5600 3300 0    50   ~ 0
UART_TX
Text Label 5600 3200 0    50   ~ 0
UART_RX
Wire Wire Line
	5600 3200 5950 3200
Wire Wire Line
	5600 3300 5950 3300
$Comp
L Connector:TestPoint TP2
U 1 1 5DEF6098
P 5750 3800
F 0 "TP2" V 5704 3988 50  0000 L CNN
F 1 "TRIG" V 5795 3988 50  0000 L CNN
F 2 "TestPoint:TestPoint_THTPad_D1.0mm_Drill0.5mm" H 5950 3800 50  0001 C CNN
F 3 "~" H 5950 3800 50  0001 C CNN
	1    5750 3800
	0    1    1    0   
$EndComp
Wire Wire Line
	5750 3800 5600 3800
$Comp
L Jumper:Jumper_3_Bridged12 JP1
U 1 1 5DF11DA9
P 7100 1800
F 0 "JP1" V 7054 1866 50  0000 L CNN
F 1 "UC1" V 7145 1866 50  0000 L CNN
F 2 "Connector_PinHeader_2.54mm:PinHeader_1x03_P2.54mm_Vertical" H 7100 1800 50  0001 C CNN
F 3 "~" H 7100 1800 50  0001 C CNN
F 4 "2356154" V 7100 1800 50  0001 C CNN "Supplier Part Number1"
F 5 "Farnell" V 7100 1800 50  0001 C CNN "Supplier1"
F 6 "61300311121" V 7100 1800 50  0001 C CNN "PartNumber"
	1    7100 1800
	0    1    1    0   
$EndComp
$Comp
L Jumper:Jumper_3_Bridged12 JP2
U 1 1 5DF13799
P 8100 1800
F 0 "JP2" V 8054 1866 50  0000 L CNN
F 1 "UC2" V 8145 1866 50  0000 L CNN
F 2 "Connector_PinHeader_2.54mm:PinHeader_1x03_P2.54mm_Vertical" H 8100 1800 50  0001 C CNN
F 3 "~" H 8100 1800 50  0001 C CNN
F 4 "61300311121" V 8100 1800 50  0001 C CNN "PartNumber"
F 5 "Farnell" V 8100 1800 50  0001 C CNN "Supplier1"
F 6 "2356154" V 8100 1800 50  0001 C CNN "Supplier Part Number1"
	1    8100 1800
	0    1    1    0   
$EndComp
Text Label 5600 3100 0    50   ~ 0
UC2
Text Label 5600 3400 0    50   ~ 0
UC1
Wire Wire Line
	6950 1800 6850 1800
$Comp
L Device:R R2
U 1 1 5DF228F8
P 6700 1800
F 0 "R2" V 6800 1850 50  0000 C CNN
F 1 "10k" V 6600 1850 50  0000 C CNN
F 2 "Resistor_SMD:R_0603_1608Metric" V 6630 1800 50  0001 C CNN
F 3 "~" H 6700 1800 50  0001 C CNN
F 4 "ERJ-3EKF1002V" V 6700 1800 50  0001 C CNN "PartNumber"
	1    6700 1800
	0    -1   -1   0   
$EndComp
$Comp
L Device:R R3
U 1 1 5DF267D4
P 7700 1800
F 0 "R3" V 7800 1850 50  0000 C CNN
F 1 "10k" V 7600 1850 50  0000 C CNN
F 2 "Resistor_SMD:R_0603_1608Metric" V 7630 1800 50  0001 C CNN
F 3 "~" H 7700 1800 50  0001 C CNN
F 4 "ERJ-3EKF1002V" V 7700 1800 50  0001 C CNN "PartNumber"
	1    7700 1800
	0    -1   -1   0   
$EndComp
Wire Wire Line
	7950 1800 7850 1800
Text Label 6350 1800 0    50   ~ 0
UC2
Text Label 7350 1800 0    50   ~ 0
UC1
$Comp
L power:+3.3V #PWR02
U 1 1 5DF35703
P 7100 1450
F 0 "#PWR02" H 7100 1300 50  0001 C CNN
F 1 "+3.3V" H 7115 1623 50  0000 C CNN
F 2 "" H 7100 1450 50  0001 C CNN
F 3 "" H 7100 1450 50  0001 C CNN
	1    7100 1450
	1    0    0    -1  
$EndComp
$Comp
L power:+3.3V #PWR03
U 1 1 5DF35CB4
P 8100 1450
F 0 "#PWR03" H 8100 1300 50  0001 C CNN
F 1 "+3.3V" H 8115 1623 50  0000 C CNN
F 2 "" H 8100 1450 50  0001 C CNN
F 3 "" H 8100 1450 50  0001 C CNN
	1    8100 1450
	1    0    0    -1  
$EndComp
$Comp
L power:GND #PWR06
U 1 1 5DF36224
P 7100 2150
F 0 "#PWR06" H 7100 1900 50  0001 C CNN
F 1 "GND" H 7105 1977 50  0000 C CNN
F 2 "" H 7100 2150 50  0001 C CNN
F 3 "" H 7100 2150 50  0001 C CNN
	1    7100 2150
	1    0    0    -1  
$EndComp
$Comp
L power:GND #PWR07
U 1 1 5DF366B2
P 8100 2150
F 0 "#PWR07" H 8100 1900 50  0001 C CNN
F 1 "GND" H 8105 1977 50  0000 C CNN
F 2 "" H 8100 2150 50  0001 C CNN
F 3 "" H 8100 2150 50  0001 C CNN
	1    8100 2150
	1    0    0    -1  
$EndComp
Wire Wire Line
	8100 2150 8100 2050
Wire Wire Line
	8100 1550 8100 1450
Wire Wire Line
	7100 1550 7100 1450
Wire Wire Line
	7100 2150 7100 2050
Wire Wire Line
	7550 1800 7350 1800
Wire Wire Line
	6550 1800 6350 1800
$Comp
L power:+3.3V #PWR018
U 1 1 5DF57B3B
P 6300 4050
F 0 "#PWR018" H 6300 3900 50  0001 C CNN
F 1 "+3.3V" H 6315 4223 50  0000 C CNN
F 2 "" H 6300 4050 50  0001 C CNN
F 3 "" H 6300 4050 50  0001 C CNN
	1    6300 4050
	1    0    0    -1  
$EndComp
$Comp
L power:GND #PWR030
U 1 1 5DF58109
P 6300 4950
F 0 "#PWR030" H 6300 4700 50  0001 C CNN
F 1 "GND" H 6305 4777 50  0000 C CNN
F 2 "" H 6300 4950 50  0001 C CNN
F 3 "" H 6300 4950 50  0001 C CNN
	1    6300 4950
	1    0    0    -1  
$EndComp
$Comp
L Device:R R16
U 1 1 5DF5B89D
P 6300 4700
F 0 "R16" H 6230 4654 50  0000 R CNN
F 1 "DNP" H 6230 4745 50  0000 R CNN
F 2 "Resistor_SMD:R_0603_1608Metric" V 6230 4700 50  0001 C CNN
F 3 "~" H 6300 4700 50  0001 C CNN
F 4 "0603WAF0000T5E" H 6300 4700 50  0001 C CNN "PartNumber"
	1    6300 4700
	-1   0    0    1   
$EndComp
Wire Wire Line
	5600 3900 5950 3900
Wire Wire Line
	5950 3900 5950 4500
Wire Wire Line
	5950 4500 6300 4500
Wire Wire Line
	6300 4500 6300 4450
Wire Wire Line
	6300 4150 6300 4050
Wire Wire Line
	6300 4550 6300 4500
Connection ~ 6300 4500
Wire Wire Line
	6300 4950 6300 4850
Text Label 5950 4500 0    50   ~ 0
XCLKC
Text Label 4650 2550 1    50   ~ 0
SAVEB
Text Label 4550 2550 1    50   ~ 0
RESETB
Wire Wire Line
	4550 2550 4550 2250
Wire Wire Line
	4650 2550 4650 2250
Text Label 4750 2550 1    50   ~ 0
XTAL1
Text Label 4850 2550 1    50   ~ 0
XTAL2
$Comp
L Device:R R4
U 1 1 5DFA42F2
P 5350 2250
F 0 "R4" V 5450 2250 50  0000 C CNN
F 1 "DNP" V 5400 2050 50  0000 C CNN
F 2 "Resistor_SMD:R_0603_1608Metric" V 5280 2250 50  0001 C CNN
F 3 "~" H 5350 2250 50  0001 C CNN
F 4 "0603WAF0000T5E" V 5350 2250 50  0001 C CNN "PartNumber"
	1    5350 2250
	0    -1   -1   0   
$EndComp
Wire Wire Line
	4950 2250 5200 2250
Wire Wire Line
	4950 2250 4950 2550
Wire Wire Line
	5500 2250 5750 2250
Wire Wire Line
	5750 2250 5750 2400
Connection ~ 5750 2400
$Comp
L Connector:Conn_01x01_Male J1
U 1 1 5DFADDE9
P 5800 2000
F 0 "J1" H 5772 1932 50  0000 R CNN
F 1 "Conn_01x01_Male" H 5772 2023 50  0000 R CNN
F 2 "Connector_PinHeader_2.54mm:PinHeader_1x01_P2.54mm_Vertical" H 5800 2000 50  0001 C CNN
F 3 "~" H 5800 2000 50  0001 C CNN
F 4 "M20-9770842" H 5800 2000 50  0001 C CNN "PartNumber"
	1    5800 2000
	-1   0    0    1   
$EndComp
Wire Wire Line
	5050 2550 5050 2150
Wire Wire Line
	5050 2150 5250 2150
Wire Wire Line
	5250 2150 5250 2000
Wire Wire Line
	5250 2000 5600 2000
Text Label 4950 2500 1    50   ~ 0
XSEL
Text Label 5050 2500 1    50   ~ 0
XCLK
$Comp
L Analog_ADC:ADC081C021CIMM U2
U 1 1 5DFB586E
P 7800 3450
F 0 "U2" H 8050 3200 50  0000 C CNN
F 1 "ADC081C021CIMM" H 8200 3700 50  0000 C CNN
F 2 "Package_SO:MSOP-8_3x3mm_P0.65mm" H 8600 3100 50  0001 C CNN
F 3 "http://www.ti.com/lit/ds/symlink/adc081c021.pdf" H 7800 3550 50  0001 C CNN
F 4 "ADC081C021CIMM" H 7800 3450 50  0001 C CNN "PartNumber"
F 5 "Texas Instruments" H 7800 3450 50  0001 C CNN "Manufacturer"
	1    7800 3450
	1    0    0    -1  
$EndComp
Wire Wire Line
	8500 3450 8500 3350
Wire Wire Line
	8200 3450 8500 3450
Wire Wire Line
	8200 3350 8250 3350
Wire Wire Line
	8250 3350 8250 3400
$Comp
L power:+3.3V #PWR013
U 1 1 5E005F2A
P 7800 2900
F 0 "#PWR013" H 7800 2750 50  0001 C CNN
F 1 "+3.3V" H 7815 3073 50  0000 C CNN
F 2 "" H 7800 2900 50  0001 C CNN
F 3 "" H 7800 2900 50  0001 C CNN
	1    7800 2900
	1    0    0    -1  
$EndComp
$Comp
L power:GND #PWR017
U 1 1 5E00669C
P 7800 3850
F 0 "#PWR017" H 7800 3600 50  0001 C CNN
F 1 "GND" H 7805 3677 50  0000 C CNN
F 2 "" H 7800 3850 50  0001 C CNN
F 3 "" H 7800 3850 50  0001 C CNN
	1    7800 3850
	1    0    0    -1  
$EndComp
Wire Wire Line
	7800 3750 7800 3850
Wire Wire Line
	8300 3550 8300 3950
Wire Wire Line
	8200 3550 8300 3550
$Comp
L Device:R R12
U 1 1 5E024178
P 6650 3800
F 0 "R12" H 6700 3850 50  0000 L CNN
F 1 "DNP" H 6700 3750 50  0000 L CNN
F 2 "Resistor_SMD:R_0603_1608Metric" V 6580 3800 50  0001 C CNN
F 3 "~" H 6650 3800 50  0001 C CNN
F 4 "0603WAF0000T5E" H 6650 3800 50  0001 C CNN "PartNumber"
	1    6650 3800
	1    0    0    -1  
$EndComp
Text Label 7050 3350 0    50   ~ 0
ANAOUT
Text Label 4350 2550 1    50   ~ 0
ANAOUT
Wire Wire Line
	4350 2550 4350 2250
Text Label 4450 2550 1    50   ~ 0
FANIN
$Comp
L Device:R R13
U 1 1 5E0332D4
P 6900 3800
F 0 "R13" H 6970 3846 50  0000 L CNN
F 1 "DNP" H 6970 3755 50  0000 L CNN
F 2 "Resistor_SMD:R_0603_1608Metric" V 6830 3800 50  0001 C CNN
F 3 "~" H 6900 3800 50  0001 C CNN
F 4 "0603WAF0000T5E" H 6900 3800 50  0001 C CNN "PartNumber"
	1    6900 3800
	1    0    0    -1  
$EndComp
Wire Wire Line
	7400 3350 7050 3350
$Comp
L Device:R R8
U 1 1 5E053A14
P 6650 3200
F 0 "R8" H 6720 3246 50  0000 L CNN
F 1 "0E" H 6720 3155 50  0000 L CNN
F 2 "Resistor_SMD:R_0603_1608Metric" V 6580 3200 50  0001 C CNN
F 3 "~" H 6650 3200 50  0001 C CNN
F 4 "0603WAF0000T5E" H 6650 3200 50  0001 C CNN "PartNumber"
	1    6650 3200
	1    0    0    -1  
$EndComp
$Comp
L Device:R R9
U 1 1 5E053F6A
P 6900 3200
F 0 "R9" H 6970 3246 50  0000 L CNN
F 1 "0E" H 6970 3155 50  0000 L CNN
F 2 "Resistor_SMD:R_0603_1608Metric" V 6830 3200 50  0001 C CNN
F 3 "~" H 6900 3200 50  0001 C CNN
F 4 "0603WAF0000T5E" H 6900 3200 50  0001 C CNN "PartNumber"
	1    6900 3200
	1    0    0    -1  
$EndComp
Wire Wire Line
	6900 3650 6900 3450
Wire Wire Line
	7400 3450 6900 3450
Wire Wire Line
	7400 3550 6650 3550
Connection ~ 6650 3550
Wire Wire Line
	6650 3550 6650 3650
Wire Wire Line
	6650 3350 6650 3550
Wire Wire Line
	6900 3350 6900 3450
Connection ~ 6900 3450
$Comp
L power:+3.3V #PWR014
U 1 1 5E09E44A
P 6900 2950
F 0 "#PWR014" H 6900 2800 50  0001 C CNN
F 1 "+3.3V" H 6915 3123 50  0000 C CNN
F 2 "" H 6900 2950 50  0001 C CNN
F 3 "" H 6900 2950 50  0001 C CNN
	1    6900 2950
	1    0    0    -1  
$EndComp
$Comp
L power:GND #PWR019
U 1 1 5E09EC9A
P 6900 4050
F 0 "#PWR019" H 6900 3800 50  0001 C CNN
F 1 "GND" H 6905 3877 50  0000 C CNN
F 2 "" H 6900 4050 50  0001 C CNN
F 3 "" H 6900 4050 50  0001 C CNN
	1    6900 4050
	1    0    0    -1  
$EndComp
Wire Wire Line
	6900 4050 6900 4000
Wire Wire Line
	6900 4000 6650 4000
Wire Wire Line
	6650 4000 6650 3950
Connection ~ 6900 4000
Wire Wire Line
	6900 4000 6900 3950
Wire Wire Line
	6900 3050 6900 3000
Wire Wire Line
	6900 3000 6650 3000
Wire Wire Line
	6650 3000 6650 3050
Connection ~ 6900 3000
Wire Wire Line
	6900 3000 6900 2950
Text Label 7050 3450 0    50   ~ 0
ADR0
Text Label 7050 3550 0    50   ~ 0
ADR1
Text Label 8500 3350 0    50   ~ 0
SDA
Text Label 8300 3400 0    50   ~ 0
SCL
Text Label 8300 3950 0    50   ~ 0
ALERT
$Comp
L Connector:TestPoint TP4
U 1 1 5E0F1AB9
P 4850 5200
F 0 "TP4" H 4800 5300 50  0000 R CNN
F 1 "VDD1M" H 4800 5400 50  0000 R CNN
F 2 "TestPoint:TestPoint_THTPad_D1.0mm_Drill0.5mm" H 5050 5200 50  0001 C CNN
F 3 "~" H 5050 5200 50  0001 C CNN
	1    4850 5200
	-1   0    0    1   
$EndComp
Connection ~ 4850 5200
$Comp
L Connector:TestPoint TP3
U 1 1 5E0F26FA
P 4650 5200
F 0 "TP3" H 4650 5400 50  0000 R CNN
F 1 "VDD2MC" H 4650 5500 50  0000 R CNN
F 2 "TestPoint:TestPoint_THTPad_D1.0mm_Drill0.5mm" H 4850 5200 50  0001 C CNN
F 3 "~" H 4850 5200 50  0001 C CNN
	1    4650 5200
	-1   0    0    1   
$EndComp
Connection ~ 4650 5200
$Comp
L Connector:TestPoint TP1
U 1 1 5E0F2E66
P 4100 2400
F 0 "TP1" H 4000 2700 50  0000 L CNN
F 1 "3V3" H 4000 2600 50  0000 L CNN
F 2 "TestPoint:TestPoint_THTPad_D1.0mm_Drill0.5mm" H 4300 2400 50  0001 C CNN
F 3 "~" H 4300 2400 50  0001 C CNN
	1    4100 2400
	1    0    0    -1  
$EndComp
Connection ~ 4100 2400
Wire Wire Line
	4100 2400 4250 2400
Wire Wire Line
	4000 4650 4000 4900
Text Label 3550 3900 0    50   ~ 0
20V
$Comp
L Connector:Conn_01x03_Female J4
U 1 1 5E0F5F16
P 2900 4950
F 0 "J4" H 2900 5150 50  0000 C CNN
F 1 "Power" H 2800 4750 50  0000 C CNN
F 2 "TerminalBlock:TerminalBlock_Altech_AK300-3_P5.00mm" H 2900 4950 50  0001 C CNN
F 3 "~" H 2900 4950 50  0001 C CNN
F 4 "691101710003" H 2900 4950 50  0001 C CNN "PartNumber"
F 5 "Farnell" H 2900 4950 50  0001 C CNN "Supplier1"
F 6 "1641933" H 2900 4950 50  0001 C CNN "Supplier Part Number 1"
F 7 "Wurth Elektronik" H 2900 4950 50  0001 C CNN "Manufacturer"
	1    2900 4950
	-1   0    0    -1  
$EndComp
$Comp
L power:GND #PWR031
U 1 1 5E0F81A3
P 3300 5150
F 0 "#PWR031" H 3300 4900 50  0001 C CNN
F 1 "GND" H 3305 4977 50  0000 C CNN
F 2 "" H 3300 5150 50  0001 C CNN
F 3 "" H 3300 5150 50  0001 C CNN
	1    3300 5150
	1    0    0    -1  
$EndComp
Connection ~ 3350 3800
Wire Wire Line
	3350 3800 3100 3800
Wire Wire Line
	3350 3800 3800 3800
Wire Wire Line
	3350 4600 4750 4600
Wire Wire Line
	3100 4850 3400 4850
Wire Wire Line
	3400 4850 3400 3900
Wire Wire Line
	3400 3900 3550 3900
Connection ~ 3550 3900
Wire Wire Line
	3100 4950 3650 4950
Connection ~ 3650 4950
Wire Wire Line
	3650 4950 3650 4900
Wire Wire Line
	3100 5050 3300 5050
Wire Wire Line
	3300 5050 3300 5150
Text Label 3550 3800 0    50   ~ 0
VFILT
Text Label 3550 3700 0    50   ~ 0
CEQ2
Text Label 3550 3600 0    50   ~ 0
CEQ1
Text Label 3550 3500 0    50   ~ 0
VBUS1
Text Label 3550 3400 0    50   ~ 0
CAV
Connection ~ 2550 3200
Wire Wire Line
	2550 3200 2600 3200
Text Label 3550 3300 0    50   ~ 0
CCP
Text Label 3550 3200 0    50   ~ 0
TXO
$Comp
L Connector:TestPoint TP5
U 1 1 5E167724
P 4250 5300
F 0 "TP5" V 4350 5300 50  0000 L CNN
F 1 "VDD2MV" V 4450 5300 50  0000 L CNN
F 2 "TestPoint:TestPoint_THTPad_D1.0mm_Drill0.5mm" H 4450 5300 50  0001 C CNN
F 3 "~" H 4450 5300 50  0001 C CNN
	1    4250 5300
	0    1    1    0   
$EndComp
Connection ~ 4250 5300
Text Label 4250 5000 1    50   ~ 0
VDD2MV
Text Label 4350 5000 1    50   ~ 0
VDD2MC
Text Label 4850 4600 1    50   ~ 0
VSW1
Text Label 5150 4600 1    50   ~ 0
VDD1M
Text Label 4650 4550 1    50   ~ 0
VSW2
Wire Wire Line
	3450 3600 3800 3600
Wire Wire Line
	3050 3700 3800 3700
$Comp
L Device:C C8
U 1 1 5DD4E5C4
P 2200 4150
F 0 "C8" H 2315 4241 50  0000 L CNN
F 1 "100nF" H 2315 4150 50  0000 L CNN
F 2 "Capacitor_SMD:C_0603_1608Metric" H 2238 4000 50  0001 C CNN
F 3 "~" H 2200 4150 50  0001 C CNN
F 4 "50V" H 2315 4059 50  0000 L CNN "Voltage"
F 5 "885012206095" H 2200 4150 50  0001 C CNN "PartNumber"
F 6 "Wurth Elektronik" H 2200 4150 50  0001 C CNN "Manufacturer"
	1    2200 4150
	1    0    0    -1  
$EndComp
Wire Wire Line
	1550 3200 1750 3200
Wire Wire Line
	2550 3500 3800 3500
Wire Wire Line
	2900 3200 3800 3200
Wire Wire Line
	3350 3300 3800 3300
Wire Wire Line
	2550 3300 3050 3300
$Comp
L Device:C C5
U 1 1 5E275AE9
P 8050 3000
F 0 "C5" V 8250 2900 50  0000 C CNN
F 1 "100nF" V 8150 2800 50  0000 C CNN
F 2 "Capacitor_SMD:C_0603_1608Metric" H 8088 2850 50  0001 C CNN
F 3 "~" H 8050 3000 50  0001 C CNN
F 4 "885012206020" V 8050 3000 50  0001 C CNN "PartNumber"
F 5 "Wurth Elektronik" V 8050 3000 50  0001 C CNN "Manufacturer"
	1    8050 3000
	0    -1   -1   0   
$EndComp
$Comp
L power:GND #PWR015
U 1 1 5E27C0CE
P 8300 3000
F 0 "#PWR015" H 8300 2750 50  0001 C CNN
F 1 "GND" V 8305 2872 50  0000 R CNN
F 2 "" H 8300 3000 50  0001 C CNN
F 3 "" H 8300 3000 50  0001 C CNN
	1    8300 3000
	0    -1   -1   0   
$EndComp
Wire Wire Line
	7800 2900 7800 3000
Wire Wire Line
	7900 3000 7800 3000
Connection ~ 7800 3000
Wire Wire Line
	7800 3000 7800 3150
Wire Wire Line
	8300 3000 8200 3000
$Comp
L Device:R R6
U 1 1 5E481B3B
P 9150 3050
F 0 "R6" H 9220 3096 50  0000 L CNN
F 1 "10k" H 9220 3005 50  0000 L CNN
F 2 "Resistor_SMD:R_0603_1608Metric" V 9080 3050 50  0001 C CNN
F 3 "~" H 9150 3050 50  0001 C CNN
F 4 "ERJ-3EKF1002V" H 9150 3050 50  0001 C CNN "PartNumber"
	1    9150 3050
	1    0    0    -1  
$EndComp
$Comp
L Device:R R5
U 1 1 5E4821D3
P 8850 3050
F 0 "R5" H 8920 3096 50  0000 L CNN
F 1 "10k" H 8920 3005 50  0000 L CNN
F 2 "Resistor_SMD:R_0603_1608Metric" V 8780 3050 50  0001 C CNN
F 3 "~" H 8850 3050 50  0001 C CNN
F 4 "ERJ-3EKF1002V" H 8850 3050 50  0001 C CNN "PartNumber"
	1    8850 3050
	1    0    0    -1  
$EndComp
Text Label 10400 3550 0    50   ~ 0
UART_TX
Text Label 10400 3650 0    50   ~ 0
UART_RX
Text Label 9000 3750 0    50   ~ 0
SAVEB
Text Label 9000 3850 0    50   ~ 0
RESETB
Wire Wire Line
	9350 3400 9350 3450
Wire Wire Line
	9350 3450 9400 3450
$Comp
L Device:R R14
U 1 1 5E01137C
P 9150 3950
F 0 "R14" V 9050 4000 50  0000 C CNN
F 1 "560E" V 8950 4000 50  0000 C CNN
F 2 "Resistor_SMD:R_0603_1608Metric" V 9080 3950 50  0001 C CNN
F 3 "~" H 9150 3950 50  0001 C CNN
F 4 "RC0603FR-07560RL" V 9150 3950 50  0001 C CNN "PartNumber"
	1    9150 3950
	0    -1   -1   0   
$EndComp
Wire Wire Line
	9300 3950 9400 3950
$Comp
L Device:R R10
U 1 1 5E207765
P 10250 3550
F 0 "R10" V 10350 3650 50  0000 C CNN
F 1 "560E" V 10350 3450 50  0000 C CNN
F 2 "Resistor_SMD:R_0603_1608Metric" V 10180 3550 50  0001 C CNN
F 3 "~" H 10250 3550 50  0001 C CNN
F 4 "RC0603FR-07560RL" V 10250 3550 50  0001 C CNN "PartNumber"
	1    10250 3550
	0    -1   -1   0   
$EndComp
$Comp
L Device:R R11
U 1 1 5E207B21
P 10250 3650
F 0 "R11" V 10150 3750 50  0000 C CNN
F 1 "560E" V 10150 3550 50  0000 C CNN
F 2 "Resistor_SMD:R_0603_1608Metric" V 10180 3650 50  0001 C CNN
F 3 "~" H 10250 3650 50  0001 C CNN
F 4 "RC0603FR-07560RL" V 10250 3650 50  0001 C CNN "PartNumber"
	1    10250 3650
	0    -1   -1   0   
$EndComp
Wire Wire Line
	9900 3550 10100 3550
Wire Wire Line
	10100 3650 9900 3650
Wire Wire Line
	10400 3550 10750 3550
Wire Wire Line
	10400 3650 10750 3650
NoConn ~ 9900 5150
NoConn ~ 9900 5050
NoConn ~ 9900 4950
NoConn ~ 9900 4750
NoConn ~ 9900 4550
NoConn ~ 9900 4450
NoConn ~ 9900 4350
NoConn ~ 9900 4250
NoConn ~ 9900 4050
NoConn ~ 9900 3950
NoConn ~ 9900 3750
NoConn ~ 9900 3350
NoConn ~ 9900 3250
NoConn ~ 9400 3250
NoConn ~ 9400 3550
NoConn ~ 9400 4050
NoConn ~ 9400 4150
NoConn ~ 9400 4250
NoConn ~ 9400 4350
NoConn ~ 9400 4550
NoConn ~ 9400 4650
NoConn ~ 9400 4750
NoConn ~ 9400 4850
NoConn ~ 9400 4950
NoConn ~ 9400 5050
$Comp
L power:GND #PWR033
U 1 1 5E3CA7B9
P 9350 5250
F 0 "#PWR033" H 9350 5000 50  0001 C CNN
F 1 "GND" H 9355 5077 50  0000 C CNN
F 2 "" H 9350 5250 50  0001 C CNN
F 3 "" H 9350 5250 50  0001 C CNN
	1    9350 5250
	1    0    0    -1  
$EndComp
$Comp
L power:GND #PWR034
U 1 1 5E3CB8EC
P 9950 5250
F 0 "#PWR034" H 9950 5000 50  0001 C CNN
F 1 "GND" H 9955 5077 50  0000 C CNN
F 2 "" H 9950 5250 50  0001 C CNN
F 3 "" H 9950 5250 50  0001 C CNN
	1    9950 5250
	1    0    0    -1  
$EndComp
Wire Wire Line
	9400 4450 9350 4450
Wire Wire Line
	9350 4450 9350 5150
Wire Wire Line
	9900 4650 9950 4650
Wire Wire Line
	9950 4650 9950 4850
Wire Wire Line
	9900 4850 9950 4850
Connection ~ 9950 4850
Wire Wire Line
	9950 4850 9950 5250
Wire Wire Line
	9900 4150 9950 4150
Wire Wire Line
	9950 4150 9950 4650
Connection ~ 9950 4650
Wire Wire Line
	9900 3450 9950 3450
Wire Wire Line
	9950 3450 9950 3850
Connection ~ 9950 4150
Wire Wire Line
	9900 3850 9950 3850
Connection ~ 9950 3850
Wire Wire Line
	9950 3850 9950 4150
Wire Wire Line
	9400 3650 9350 3650
Wire Wire Line
	9350 3650 9350 4450
Connection ~ 9350 4450
Wire Wire Line
	9400 5150 9350 5150
Connection ~ 9350 5150
Wire Wire Line
	9350 5150 9350 5250
Wire Wire Line
	8300 3950 9000 3950
Wire Wire Line
	8500 3350 8850 3350
$Comp
L power:+3.3V #PWR011
U 1 1 5E510EA4
P 8850 2750
F 0 "#PWR011" H 8850 2600 50  0001 C CNN
F 1 "+3.3V" H 8865 2923 50  0000 C CNN
F 2 "" H 8850 2750 50  0001 C CNN
F 3 "" H 8850 2750 50  0001 C CNN
	1    8850 2750
	1    0    0    -1  
$EndComp
Wire Wire Line
	8850 2900 8850 2800
Wire Wire Line
	9150 2900 9150 2800
Wire Wire Line
	9150 2800 8850 2800
Connection ~ 8850 2800
Wire Wire Line
	8850 2800 8850 2750
Wire Wire Line
	8850 3200 8850 3350
Connection ~ 8850 3350
$Comp
L Graphic:Logo_Open_Hardware_Large #LOGO1
U 1 1 5E0FA009
P 7750 5000
F 0 "#LOGO1" H 7750 5500 50  0001 C CNN
F 1 "Logo_Open_Hardware_Large" H 7750 4600 50  0001 C CNN
F 2 "" H 7750 5000 50  0001 C CNN
F 3 "~" H 7750 5000 50  0001 C CNN
	1    7750 5000
	1    0    0    -1  
$EndComp
$Comp
L Graphic:SYM_ESD_Large #SYM1
U 1 1 5E100384
P 2150 5000
F 0 "#SYM1" H 2150 5200 50  0001 C CNN
F 1 "SYM_ESD_Large" H 2150 4750 50  0001 C CNN
F 2 "" H 2145 4970 50  0001 C CNN
F 3 "~" H 2145 4970 50  0001 C CNN
	1    2150 5000
	1    0    0    -1  
$EndComp
$Comp
L Device:Crystal_GND24 Y1
U 1 1 5EC923AA
P 4950 1750
F 0 "Y1" H 5200 1800 50  0000 L CNN
F 1 "830055951 16MHz" H 5200 1700 50  0000 L CNN
F 2 "Crystal:Crystal_SMD_SeikoEpson_FA238-4Pin_3.2x2.5mm" H 4950 1750 50  0001 C CNN
F 3 "~" H 4950 1750 50  0001 C CNN
F 4 "830055951" H 4950 1750 50  0001 C CNN "PartNumber"
F 5 "Wurth Elektronik" H 4950 1750 50  0001 C CNN "Manufacturer"
	1    4950 1750
	1    0    0    -1  
$EndComp
$Comp
L power:GND #PWR0101
U 1 1 5ECBB6AC
P 4950 1950
F 0 "#PWR0101" H 4950 1700 50  0001 C CNN
F 1 "GND" H 5050 1950 50  0000 C CNN
F 2 "" H 4950 1950 50  0001 C CNN
F 3 "" H 4950 1950 50  0001 C CNN
	1    4950 1950
	1    0    0    -1  
$EndComp
$Comp
L power:GND #PWR0102
U 1 1 5ECBBEE0
P 4950 1550
F 0 "#PWR0102" H 4950 1300 50  0001 C CNN
F 1 "GND" H 4850 1550 50  0000 C CNN
F 2 "" H 4950 1550 50  0001 C CNN
F 3 "" H 4950 1550 50  0001 C CNN
	1    4950 1550
	-1   0    0    1   
$EndComp
Wire Wire Line
	5150 1450 5150 1750
Wire Wire Line
	4750 1450 4750 1750
Wire Wire Line
	4800 1750 4750 1750
Connection ~ 4750 1750
Wire Wire Line
	4750 1750 4750 2550
Wire Wire Line
	5100 1750 5150 1750
Connection ~ 5150 1750
Wire Wire Line
	5150 1750 5150 2100
Connection ~ 9150 3400
Wire Wire Line
	9150 3400 9350 3400
Wire Wire Line
	8250 3400 9150 3400
Connection ~ 9300 3350
Connection ~ 9300 3950
Connection ~ 9300 3850
Connection ~ 9300 3750
Wire Wire Line
	9300 3350 9400 3350
Wire Wire Line
	8850 3350 9300 3350
Wire Wire Line
	9300 3750 9400 3750
Wire Wire Line
	9000 3750 9300 3750
Wire Wire Line
	9300 3850 9400 3850
Wire Wire Line
	9000 3850 9300 3850
Wire Wire Line
	9150 3200 9150 3400
$Comp
L Connector_Generic:Conn_02x20_Odd_Even J3
U 1 1 5DEA0183
P 9700 4150
F 0 "J3" H 9750 5267 50  0000 C CNN
F 1 "RPI" H 9750 5176 50  0000 C CNN
F 2 "Connector_Samtec_HLE_SMD:Samtec_HLE-120-02-xxx-DV-BE_2x20_P2.54mm_Horizontal" H 9700 4150 50  0001 C CNN
F 3 "~" H 9700 4150 50  0001 C CNN
F 4 "61004021821" H 9700 4150 50  0001 C CNN "PartNumber"
F 5 "Wurth Elektronik" H 9700 4150 50  0001 C CNN "Manufacturer"
	1    9700 4150
	-1   0    0    -1  
$EndComp
$EndSCHEMATC
