M48
; DRILL file {KiCad 5.1.4+dfsg1-1} date za 23 mei 2020 11:07:22 CEST
; FORMAT={-:-/ absolute / metric / decimal}
; #@! TF.CreationDate,2020-05-23T11:07:22+02:00
; #@! TF.GenerationSoftware,Kicad,Pcbnew,5.1.4+dfsg1-1
; #@! TF.FileFunction,NonPlated,1,2,NPTH
FMAT,2
METRIC
T1C0.970
T2C2.700
%
G90
G05
T1
X186.97Y-76.13
X186.97Y-78.67
X189.51Y-76.13
X189.51Y-78.67
X192.05Y-76.13
X192.05Y-78.67
X194.59Y-76.13
X194.59Y-78.67
X197.13Y-76.13
X197.13Y-78.67
X199.67Y-76.13
X199.67Y-78.67
X202.21Y-76.13
X202.21Y-78.67
X204.75Y-76.13
X204.75Y-78.67
X207.29Y-76.13
X207.29Y-78.67
X209.83Y-76.13
X209.83Y-78.67
X212.37Y-76.13
X212.37Y-78.67
X214.91Y-76.13
X214.91Y-78.67
X217.45Y-76.13
X217.45Y-78.67
X219.99Y-76.13
X219.99Y-78.67
X222.53Y-76.13
X222.53Y-78.67
X225.07Y-76.13
X225.07Y-78.67
X227.61Y-76.13
X227.61Y-78.67
X230.15Y-76.13
X230.15Y-78.67
X232.69Y-76.13
X232.69Y-78.67
X235.23Y-76.13
X235.23Y-78.67
T2
X240.1Y-77.4
X240.1Y-126.4
X182.1Y-77.4
X182.1Y-126.4
T0
M30
