%!PS-Adobe-3.0
%%Creator: PCBNEW
%%CreationDate: Sat May 23 11:07:24 2020
%%Title: /home/tijls/Nextcloud/Projects/KNX/KNX-RPi-HAT/ncn5100rh-1/batch-2020a/gerbers/ncn5100rh-1-PTH-drl_map.ps
%%Pages: 1
%%PageOrder: Ascend
%%BoundingBox: 0 0 596 842
%%DocumentMedia: A4 595 842 0 () ()
%%Orientation: Landscape
%%EndComments
%%BeginProlog
/line { newpath moveto lineto stroke } bind def
/cir0 { newpath 0 360 arc stroke } bind def
/cir1 { newpath 0 360 arc gsave fill grestore stroke } bind def
/cir2 { newpath 0 360 arc gsave fill grestore stroke } bind def
/arc0 { newpath arc stroke } bind def
/arc1 { newpath 4 index 4 index moveto arc closepath gsave fill
    grestore stroke } bind def
/arc2 { newpath 4 index 4 index moveto arc closepath gsave fill
    grestore stroke } bind def
/poly0 { stroke } bind def
/poly1 { closepath gsave fill grestore stroke } bind def
/poly2 { closepath gsave fill grestore stroke } bind def
/rect0 { rectstroke } bind def
/rect1 { rectfill } bind def
/rect2 { rectfill } bind def
/linemode0 { 0 setlinecap 0 setlinejoin 0 setlinewidth } bind def
/linemode1 { 1 setlinecap 1 setlinejoin } bind def
/dashedline { [200] 100 setdash } bind def
/solidline { [] 0 setdash } bind def
/phantomshow { moveto
    /KicadFont findfont 0.000001 scalefont setfont
    show } bind def
/textshow { gsave
    findfont exch scalefont setfont concat 1 scale 0 0 moveto show
    } bind def
/reencodefont {
  findfont dup length dict begin
  { 1 index /FID ne
    { def }
    { pop pop } ifelse
  } forall
  /Encoding ISOLatin1Encoding def
  currentdict
  end } bind def
/KicadFont /Helvetica reencodefont definefont pop
/KicadFont-Bold /Helvetica-Bold reencodefont definefont pop
/KicadFont-Oblique /Helvetica-Oblique reencodefont definefont pop
/KicadFont-BoldOblique /Helvetica-BoldOblique reencodefont definefont pop
%%EndProlog
%%Page: 1 1
%%BeginPageSetup
gsave
0.0072 0.0072 scale
linemode1
82680 0 translate 90 rotate
93.4782 setlinewidth
%%EndPageSetup
0 0 0 setrgbcolor
147.21 setlinewidth
67665.6 51067.5 736.049 -0 180 arc0
0 0 0 setrgbcolor
67665.6 40026.8 736.049 180 360 arc0
0 0 0 setrgbcolor
newpath
66929.6 51067.5 moveto
66929.6 40026.8 lineto
stroke
0 0 0 setrgbcolor
newpath
68401.7 40026.8 moveto
68401.7 51067.5 lineto
stroke
0 0 0 setrgbcolor
36751.6 39290.8 2208.15 180 270 arc0
0 0 0 setrgbcolor
80178.4 39290.8 2208.15 -90 -0 arc0
0 0 0 setrgbcolor
80178.4 76461.2 2208.15 -0 90 arc0
0 0 0 setrgbcolor
36751.6 76461.2 2208.15 90 180 arc0
0 0 0 setrgbcolor
35279.5 50699.5 736.049 90 180 arc0
0 0 0 setrgbcolor
37487.6 52171.6 736.049 -90 -0 arc0
0 0 0 setrgbcolor
35279.5 64684.5 736.049 180 270 arc0
0 0 0 setrgbcolor
37487.6 63212.4 736.049 -0 90 arc0
0 0 0 setrgbcolor
newpath
34543.4 64684.5 moveto
34543.4 76461.2 lineto
stroke
0 0 0 setrgbcolor
newpath
37487.6 63948.4 moveto
35279.5 63948.4 lineto
stroke
0 0 0 setrgbcolor
newpath
38223.7 52171.6 moveto
38223.7 63212.4 lineto
stroke
0 0 0 setrgbcolor
newpath
35279.5 51435.6 moveto
37487.6 51435.6 lineto
stroke
0 0 0 setrgbcolor
newpath
34543.4 39290.8 moveto
34543.4 50699.5 lineto
stroke
0 0 0 setrgbcolor
newpath
80178.4 37082.6 moveto
36751.6 37082.6 lineto
stroke
0 0 0 setrgbcolor
newpath
82386.6 39290.8 moveto
82386.6 76461.2 lineto
stroke
0 0 0 setrgbcolor
newpath
80178.4 78669.4 moveto
36751.6 78669.4 lineto
stroke
78.7396 setlinewidth
newpath
59756.8 59960.2 moveto
59960.4 59756.6 lineto
stroke
newpath
59960.4 59960.2 moveto
59756.8 59756.6 lineto
stroke
newpath
59756.8 59145.7 moveto
59960.4 58942 lineto
stroke
newpath
59960.4 59145.7 moveto
59756.8 58942 lineto
stroke
newpath
59756.8 58331.1 moveto
59960.4 58127.5 lineto
stroke
newpath
59960.4 58331.1 moveto
59756.8 58127.5 lineto
stroke
newpath
60571.3 59960.2 moveto
60775 59756.6 lineto
stroke
newpath
60775 59960.2 moveto
60571.3 59756.6 lineto
stroke
newpath
60571.3 59145.7 moveto
60775 58942 lineto
stroke
newpath
60775 59145.7 moveto
60571.3 58942 lineto
stroke
newpath
60571.3 58331.1 moveto
60775 58127.5 lineto
stroke
newpath
60775 58331.1 moveto
60571.3 58127.5 lineto
stroke
newpath
61385.9 59960.2 moveto
61589.5 59756.6 lineto
stroke
newpath
61589.5 59960.2 moveto
61385.9 59756.6 lineto
stroke
newpath
61385.9 59145.7 moveto
61589.5 58942 lineto
stroke
newpath
61589.5 59145.7 moveto
61385.9 58942 lineto
stroke
newpath
61385.9 58331.1 moveto
61589.5 58127.5 lineto
stroke
newpath
61589.5 58331.1 moveto
61385.9 58127.5 lineto
stroke
39548.5 77859.7 128.809 cir0
39548.5 45988.8 128.809 cir0
40358.2 42897.4 128.809 cir0
40799.8 72339.4 128.809 cir0
41535.9 44590.3 128.809 cir0
41609.5 75798.8 128.809 cir0
43081.6 40910.1 128.809 cir0
43449.6 74989.1 128.809 cir0
44480.1 72413 128.809 cir0
44848.1 42308.6 128.809 cir0
45805 65641.3 128.809 cir0
45805 54674.2 128.809 cir0
45878.6 52981.3 128.809 cir0
45952.2 45694.4 128.809 cir0
46025.8 49889.9 128.809 cir0
46835.4 63433.2 128.809 cir0
46835.4 56955.9 128.809 cir0
46909 59826.5 128.809 cir0
47277.1 76682.1 128.809 cir0
47277.1 72486.6 128.809 cir0
47497.9 45915.2 128.809 cir0
47571.5 50331.5 128.809 cir0
47939.5 51950.8 128.809 cir0
48233.9 40689.3 128.809 cir0
48454.7 42235 128.809 cir0
48528.3 57176.8 128.809 cir0
49043.6 72413 128.809 cir0
49117.2 76682.1 128.809 cir0
49485.2 60489 128.809 cir0
49706 69321.6 128.809 cir0
49706 68217.5 128.809 cir0
49706 67260.6 128.809 cir0
49706 58722.5 128.809 cir0
50442.1 76019.6 128.809 cir0
50589.3 55042.2 128.809 cir0
50662.9 70940.9 128.809 cir0
50736.5 53275.7 128.809 cir0
50736.5 52466 128.809 cir0
50736.5 51656.4 128.809 cir0
50779.2 75547.1 128.809 cir0
51251.7 62770.7 128.809 cir0
52282.2 67113.4 128.809 cir0
53018.2 60562.6 128.809 cir0
53165.4 62844.3 128.809 cir0
53239.1 49521.8 128.809 cir0
53239.1 45326.4 128.809 cir0
53312.7 56808.7 128.809 cir0
53312.7 53275.7 128.809 cir0
53312.7 52466 128.809 cir0
53312.7 51656.4 128.809 cir0
53386.3 54821.4 128.809 cir0
54048.7 72413 128.809 cir0
54122.3 41351.7 128.809 cir0
54195.9 58133.6 128.809 cir0
54269.5 59605.7 128.809 cir0
54858.4 50699.5 128.809 cir0
55152.8 66303.8 128.809 cir0
55594.4 69542.4 128.809 cir0
55815.2 62402.7 128.809 cir0
55815.2 53570.1 128.809 cir0
55888.8 44590.3 128.809 cir0
56036 71676.9 128.809 cir0
56036 67407.8 128.809 cir0
56299.6 71130.8 128.809 cir0
56330.5 69763.2 128.809 cir0
56330.5 55336.6 128.809 cir0
56404.1 56735.1 128.809 cir0
56459.3 54232.6 128.809 cir0
56698.5 46651.3 128.809 cir0
56992.9 69763.2 128.809 cir0
57360.9 61813.9 128.809 cir0
57581.7 49153.8 128.809 cir0
57729 57324 128.809 cir0
57834.7 56114.2 128.809 cir0
57876.2 64610.8 128.809 cir0
57876.2 60709.8 128.809 cir0
57949.8 69395.2 128.809 cir0
57949.8 52392.4 128.809 cir0
58133.8 54232.6 128.809 cir0
58391.4 66819 128.809 cir0
58465 65862.1 128.809 cir0
58802.2 62592.6 128.809 cir0
58886.6 76039.6 128.809 cir0
59863.5 59900.1 128.809 cir0
59863.5 59016.9 128.809 cir0
59863.5 58207.2 128.809 cir0
60010.7 63948.4 128.809 cir0
60231.5 46724.9 128.809 cir0
60378.7 66819 128.809 cir0
60673.1 59900.1 128.809 cir0
60673.1 59016.9 128.809 cir0
60673.1 58207.2 128.809 cir0
60746.8 53643.7 128.809 cir0
60857.2 56146.3 128.809 cir0
60894 75504.4 128.809 cir0
60967.6 66819 128.809 cir0
61482.8 59900.1 128.809 cir0
61482.8 59016.9 128.809 cir0
61482.8 58207.2 128.809 cir0
62145.2 76314 128.809 cir0
62218.9 63874.8 128.809 cir0
62513.3 61813.9 128.809 cir0
62881.3 49153.8 128.809 cir0
62954.9 61298.6 128.809 cir0
63028.5 63874.8 128.809 cir0
63148.1 54527 128.809 cir0
63175.7 66966.2 128.809 cir0
63322.9 52392.4 128.809 cir0
63617.3 71161.7 128.809 cir0
63764.6 58428 128.809 cir0
63838.2 46577.6 128.809 cir0
64059 75725.2 128.809 cir0
64068.2 54527 128.809 cir0
64132.6 56440.7 128.809 cir0
64353.4 63727.6 128.809 cir0
64721.4 62991.5 128.809 cir0
64868.6 62181.9 128.809 cir0
64942.2 64684.5 128.809 cir0
65015.8 65935.7 128.809 cir0
65236.7 54527 128.809 cir0
65751.9 58648.9 128.809 cir0
65751.9 44958.3 128.809 cir0
65972.7 75725.2 128.809 cir0
66046.3 61077.8 128.809 cir0
66487.9 60489 128.809 cir0
66929.6 59090.5 128.809 cir0
67444.8 60783.4 128.809 cir0
67739.2 69616 128.809 cir0
67812.8 75725.2 128.809 cir0
68107.2 66819 128.809 cir0
68107.2 56440.7 128.809 cir0
68254.5 65199.7 128.809 cir0
68254.5 58943.3 128.809 cir0
68328.1 60489 128.809 cir0
68383.3 66082.9 128.809 cir0
68383.3 61887.5 128.809 cir0
69303.3 60489 128.809 cir0
69634.6 66082.9 128.809 cir0
69652.9 75725.2 128.809 cir0
69652.9 61887.5 128.809 cir0
69873.8 69027.1 128.809 cir0
69873.8 64537.2 128.809 cir0
70094.6 71014.5 128.809 cir0
70757 54232.6 128.809 cir0
70904.2 50331.5 128.809 cir0
70977.8 62402.7 128.809 cir0
70977.8 55851.9 128.809 cir0
71051.4 65199.7 128.809 cir0
71180.2 55115.8 128.809 cir0
71345.9 66671.8 128.809 cir0
71345.9 46577.6 128.809 cir0
71640.3 75725.2 128.809 cir0
71861.1 58133.6 128.809 cir0
72155.5 71308.9 128.809 cir0
72523.5 67407.8 128.809 cir0
72523.5 53643.7 128.809 cir0
72541.9 55115.8 128.809 cir0
72818 60857 128.809 cir0
73259.6 59384.9 128.809 cir0
73554 47534.5 128.809 cir0
73627.6 55115.8 128.809 cir0
74216.5 72339.4 128.809 cir0
74216.5 69542.4 128.809 cir0
75246.9 76461.2 128.809 cir0
75394.1 60930.6 128.809 cir0
76130.2 53570.1 128.809 cir0
76277.4 63212.4 128.809 cir0
76424.6 67481.4 128.809 cir0
77234.3 55778.3 128.809 cir0
77455.1 77712.5 128.809 cir0
77749.5 47460.9 128.809 cir0
78559.1 57986.4 128.809 cir0
79148 59679.3 128.809 cir0
79810.4 49816.3 128.809 cir0
79957.6 65126.1 128.809 cir0
80840.9 60709.8 128.809 cir0
80840.9 56587.9 128.809 cir0
81208.9 51435.6 128.809 cir0
newpath
56978.2 44744.9 moveto
56978.2 44376.9 lineto
stroke
newpath
56794.2 44560.9 moveto
57162.2 44560.9 lineto
stroke
newpath
64500.6 44744.9 moveto
64500.6 44376.9 lineto
stroke
newpath
64316.6 44560.9 moveto
64684.6 44560.9 lineto
stroke
newpath
66326 54092.7 moveto
66326 53724.7 lineto
stroke
newpath
66142 53908.7 moveto
66510 53908.7 lineto
stroke
newpath
66326 57831.8 moveto
66326 57463.8 lineto
stroke
newpath
66142 57647.8 moveto
66510 57647.8 lineto
stroke
newpath
43891.2 54092.7 moveto
43891.2 53724.7 lineto
stroke
newpath
43707.2 53908.7 moveto
44075.2 53908.7 lineto
stroke
newpath
67042.6 63393.7 moveto
67042.6 63914.2 lineto
66522.1 63914.2 lineto
66522.1 63393.7 lineto
67042.6 63393.7 lineto
poly0
newpath
79408.2 48378.3 moveto
79408.2 48898.8 lineto
78887.7 48898.8 lineto
78887.7 48378.3 lineto
79408.2 48378.3 lineto
poly0
newpath
79408.2 46508.8 moveto
79408.2 47029.3 lineto
78887.7 47029.3 lineto
78887.7 46508.8 lineto
79408.2 46508.8 lineto
poly0
newpath
79408.2 44639.2 moveto
79408.2 45159.7 lineto
78887.7 45159.7 lineto
78887.7 44639.2 lineto
79408.2 44639.2 lineto
poly0
newpath
79408.2 56033.3 moveto
79408.2 56553.7 lineto
78887.7 56553.7 lineto
78887.7 56033.3 lineto
79408.2 56033.3 lineto
poly0
newpath
79408.2 54163.7 moveto
79408.2 54684.2 lineto
78887.7 54684.2 lineto
78887.7 54163.7 lineto
79408.2 54163.7 lineto
poly0
newpath
79408.2 52294.1 moveto
79408.2 52814.6 lineto
78887.7 52814.6 lineto
78887.7 52294.1 lineto
79408.2 52294.1 lineto
poly0
newpath
43817.6 68511.9 moveto
44222.5 68916.7 lineto
43817.6 69321.6 lineto
43412.8 68916.7 lineto
43817.6 68511.9 lineto
poly0
newpath
43817.6 64279.6 moveto
44222.5 64684.5 lineto
43817.6 65089.3 lineto
43412.8 64684.5 lineto
43817.6 64279.6 lineto
poly0
newpath
42669.4 44119.2 moveto
43641 43147.7 lineto
stroke
newpath
43641 44119.2 moveto
42669.4 43147.7 lineto
stroke
43155.2 43633.5 485.792 cir0
newpath
46349.6 44119.2 moveto
47321.2 43147.7 lineto
stroke
newpath
47321.2 44119.2 moveto
46349.6 43147.7 lineto
stroke
46835.4 43633.5 485.792 cir0
newpath
50029.9 44119.2 moveto
51001.5 43147.7 lineto
stroke
newpath
51001.5 44119.2 moveto
50029.9 43147.7 lineto
stroke
50515.7 43633.5 485.792 cir0
118.11 setlinewidth
0 0 0 setrgbcolor
0 0 0 setrgbcolor
newpath
35597.5 35175.5 moveto
35597.5 36356.6 lineto
35878.7 36356.6 lineto
36047.4 36300.3 lineto
36159.9 36187.9 lineto
36216.1 36075.4 lineto
36272.4 35850.4 lineto
36272.4 35681.7 lineto
36216.1 35456.7 lineto
36159.9 35344.2 lineto
36047.4 35231.7 lineto
35878.7 35175.5 lineto
35597.5 35175.5 lineto
stroke
newpath
36778.6 35175.5 moveto
36778.6 35962.9 lineto
stroke
newpath
36778.6 35737.9 moveto
36834.8 35850.4 lineto
36891.1 35906.6 lineto
37003.5 35962.9 lineto
37116 35962.9 lineto
stroke
newpath
37509.7 35175.5 moveto
37509.7 35962.9 lineto
stroke
newpath
37509.7 36356.6 moveto
37453.5 36300.3 lineto
37509.7 36244.1 lineto
37566 36300.3 lineto
37509.7 36356.6 lineto
37509.7 36244.1 lineto
stroke
newpath
38240.9 35175.5 moveto
38128.4 35231.7 lineto
38072.2 35344.2 lineto
38072.2 36356.6 lineto
stroke
newpath
38859.6 35175.5 moveto
38747.1 35231.7 lineto
38690.8 35344.2 lineto
38690.8 36356.6 lineto
stroke
newpath
40209.4 35175.5 moveto
40209.4 36356.6 lineto
40603.1 35512.9 lineto
40996.8 36356.6 lineto
40996.8 35175.5 lineto
stroke
newpath
42065.4 35175.5 moveto
42065.4 35794.2 lineto
42009.2 35906.6 lineto
41896.7 35962.9 lineto
41671.7 35962.9 lineto
41559.2 35906.6 lineto
stroke
newpath
42065.4 35231.7 moveto
41952.9 35175.5 lineto
41671.7 35175.5 lineto
41559.2 35231.7 lineto
41503 35344.2 lineto
41503 35456.7 lineto
41559.2 35569.2 lineto
41671.7 35625.4 lineto
41952.9 35625.4 lineto
42065.4 35681.7 lineto
stroke
newpath
42627.8 35962.9 moveto
42627.8 34781.8 lineto
stroke
newpath
42627.8 35906.6 moveto
42740.3 35962.9 lineto
42965.3 35962.9 lineto
43077.8 35906.6 lineto
43134 35850.4 lineto
43190.3 35737.9 lineto
43190.3 35400.5 lineto
43134 35288 lineto
43077.8 35231.7 lineto
42965.3 35175.5 lineto
42740.3 35175.5 lineto
42627.8 35231.7 lineto
stroke
newpath
43696.5 35288 moveto
43752.7 35231.7 lineto
43696.5 35175.5 lineto
43640.2 35231.7 lineto
43696.5 35288 lineto
43696.5 35175.5 lineto
stroke
newpath
43696.5 35906.6 moveto
43752.7 35850.4 lineto
43696.5 35794.2 lineto
43640.2 35850.4 lineto
43696.5 35906.6 lineto
43696.5 35794.2 lineto
stroke
newpath
34266.2 33331.3 moveto
34469.8 33127.7 lineto
stroke
newpath
34469.8 33331.3 moveto
34266.2 33127.7 lineto
stroke
0 0 0 setrgbcolor
0 0 0 setrgbcolor
newpath
35822.4 33876.3 moveto
35934.9 33876.3 lineto
36047.4 33820 lineto
36103.7 33763.8 lineto
36159.9 33651.3 lineto
36216.1 33426.3 lineto
36216.1 33145.1 lineto
36159.9 32920.1 lineto
36103.7 32807.7 lineto
36047.4 32751.4 lineto
35934.9 32695.2 lineto
35822.4 32695.2 lineto
35710 32751.4 lineto
35653.7 32807.7 lineto
35597.5 32920.1 lineto
35541.2 33145.1 lineto
35541.2 33426.3 lineto
35597.5 33651.3 lineto
35653.7 33763.8 lineto
35710 33820 lineto
35822.4 33876.3 lineto
stroke
newpath
36722.3 32807.7 moveto
36778.6 32751.4 lineto
36722.3 32695.2 lineto
36666.1 32751.4 lineto
36722.3 32807.7 lineto
36722.3 32695.2 lineto
stroke
newpath
37228.5 33763.8 moveto
37284.8 33820 lineto
37397.2 33876.3 lineto
37678.5 33876.3 lineto
37790.9 33820 lineto
37847.2 33763.8 lineto
37903.4 33651.3 lineto
37903.4 33538.8 lineto
37847.2 33370.1 lineto
37172.3 32695.2 lineto
37903.4 32695.2 lineto
stroke
newpath
38578.3 33370.1 moveto
38465.9 33426.3 lineto
38409.6 33482.6 lineto
38353.4 33595.1 lineto
38353.4 33651.3 lineto
38409.6 33763.8 lineto
38465.9 33820 lineto
38578.3 33876.3 lineto
38803.3 33876.3 lineto
38915.8 33820 lineto
38972 33763.8 lineto
39028.3 33651.3 lineto
39028.3 33595.1 lineto
38972 33482.6 lineto
38915.8 33426.3 lineto
38803.3 33370.1 lineto
38578.3 33370.1 lineto
38465.9 33313.8 lineto
38409.6 33257.6 lineto
38353.4 33145.1 lineto
38353.4 32920.1 lineto
38409.6 32807.7 lineto
38465.9 32751.4 lineto
38578.3 32695.2 lineto
38803.3 32695.2 lineto
38915.8 32751.4 lineto
38972 32807.7 lineto
39028.3 32920.1 lineto
39028.3 33145.1 lineto
38972 33257.6 lineto
38915.8 33313.8 lineto
38803.3 33370.1 lineto
stroke
newpath
39534.5 32695.2 moveto
39534.5 33482.6 lineto
stroke
newpath
39534.5 33370.1 moveto
39590.7 33426.3 lineto
39703.2 33482.6 lineto
39871.9 33482.6 lineto
39984.4 33426.3 lineto
40040.7 33313.8 lineto
40040.7 32695.2 lineto
stroke
newpath
40040.7 33313.8 moveto
40096.9 33426.3 lineto
40209.4 33482.6 lineto
40378.1 33482.6 lineto
40490.6 33426.3 lineto
40546.9 33313.8 lineto
40546.9 32695.2 lineto
stroke
newpath
41109.3 32695.2 moveto
41109.3 33482.6 lineto
stroke
newpath
41109.3 33370.1 moveto
41165.5 33426.3 lineto
41278 33482.6 lineto
41446.7 33482.6 lineto
41559.2 33426.3 lineto
41615.5 33313.8 lineto
41615.5 32695.2 lineto
stroke
newpath
41615.5 33313.8 moveto
41671.7 33426.3 lineto
41784.2 33482.6 lineto
41952.9 33482.6 lineto
42065.4 33426.3 lineto
42121.7 33313.8 lineto
42121.7 32695.2 lineto
stroke
newpath
44427.6 33932.5 moveto
43415.2 32414 lineto
stroke
newpath
45946.2 33876.3 moveto
46058.7 33876.3 lineto
46171.2 33820 lineto
46227.4 33763.8 lineto
46283.6 33651.3 lineto
46339.9 33426.3 lineto
46339.9 33145.1 lineto
46283.6 32920.1 lineto
46227.4 32807.7 lineto
46171.2 32751.4 lineto
46058.7 32695.2 lineto
45946.2 32695.2 lineto
45833.7 32751.4 lineto
45777.5 32807.7 lineto
45721.2 32920.1 lineto
45665 33145.1 lineto
45665 33426.3 lineto
45721.2 33651.3 lineto
45777.5 33763.8 lineto
45833.7 33820 lineto
45946.2 33876.3 lineto
stroke
newpath
46846.1 32807.7 moveto
46902.3 32751.4 lineto
46846.1 32695.2 lineto
46789.8 32751.4 lineto
46846.1 32807.7 lineto
46846.1 32695.2 lineto
stroke
newpath
47633.5 33876.3 moveto
47746 33876.3 lineto
47858.4 33820 lineto
47914.7 33763.8 lineto
47970.9 33651.3 lineto
48027.2 33426.3 lineto
48027.2 33145.1 lineto
47970.9 32920.1 lineto
47914.7 32807.7 lineto
47858.4 32751.4 lineto
47746 32695.2 lineto
47633.5 32695.2 lineto
47521 32751.4 lineto
47464.7 32807.7 lineto
47408.5 32920.1 lineto
47352.3 33145.1 lineto
47352.3 33426.3 lineto
47408.5 33651.3 lineto
47464.7 33763.8 lineto
47521 33820 lineto
47633.5 33876.3 lineto
stroke
newpath
49152 32695.2 moveto
48477.1 32695.2 lineto
stroke
newpath
48814.6 32695.2 moveto
48814.6 33876.3 lineto
48702.1 33707.5 lineto
48589.6 33595.1 lineto
48477.1 33538.8 lineto
stroke
newpath
50276.9 32695.2 moveto
49602 32695.2 lineto
stroke
newpath
49939.4 32695.2 moveto
49939.4 33876.3 lineto
49826.9 33707.5 lineto
49714.5 33595.1 lineto
49602 33538.8 lineto
stroke
newpath
50726.8 33876.3 moveto
50726.8 33651.3 lineto
stroke
newpath
51176.8 33876.3 moveto
51176.8 33651.3 lineto
stroke
newpath
52920.3 32245.2 moveto
52864.1 32301.5 lineto
52751.6 32470.2 lineto
52695.3 32582.7 lineto
52639.1 32751.4 lineto
52582.9 33032.6 lineto
52582.9 33257.6 lineto
52639.1 33538.8 lineto
52695.3 33707.5 lineto
52751.6 33820 lineto
52864.1 33988.8 lineto
52920.3 34045 lineto
stroke
newpath
53426.5 32695.2 moveto
53651.5 32695.2 lineto
53764 32751.4 lineto
53820.2 32807.7 lineto
53932.7 32976.4 lineto
53988.9 33201.4 lineto
53988.9 33651.3 lineto
53932.7 33763.8 lineto
53876.4 33820 lineto
53764 33876.3 lineto
53539 33876.3 lineto
53426.5 33820 lineto
53370.3 33763.8 lineto
53314 33651.3 lineto
53314 33370.1 lineto
53370.3 33257.6 lineto
53426.5 33201.4 lineto
53539 33145.1 lineto
53764 33145.1 lineto
53876.4 33201.4 lineto
53932.7 33257.6 lineto
53988.9 33370.1 lineto
stroke
newpath
55395 32695.2 moveto
55395 33876.3 lineto
stroke
newpath
55901.2 32695.2 moveto
55901.2 33313.8 lineto
55844.9 33426.3 lineto
55732.5 33482.6 lineto
55563.7 33482.6 lineto
55451.2 33426.3 lineto
55395 33370.1 lineto
stroke
newpath
56632.3 32695.2 moveto
56519.9 32751.4 lineto
56463.6 32807.7 lineto
56407.4 32920.1 lineto
56407.4 33257.6 lineto
56463.6 33370.1 lineto
56519.9 33426.3 lineto
56632.3 33482.6 lineto
56801.1 33482.6 lineto
56913.6 33426.3 lineto
56969.8 33370.1 lineto
57026 33257.6 lineto
57026 32920.1 lineto
56969.8 32807.7 lineto
56913.6 32751.4 lineto
56801.1 32695.2 lineto
56632.3 32695.2 lineto
stroke
newpath
57701 32695.2 moveto
57588.5 32751.4 lineto
57532.2 32863.9 lineto
57532.2 33876.3 lineto
stroke
newpath
58600.9 32751.4 moveto
58488.4 32695.2 lineto
58263.4 32695.2 lineto
58150.9 32751.4 lineto
58094.7 32863.9 lineto
58094.7 33313.8 lineto
58150.9 33426.3 lineto
58263.4 33482.6 lineto
58488.4 33482.6 lineto
58600.9 33426.3 lineto
58657.1 33313.8 lineto
58657.1 33201.4 lineto
58094.7 33088.9 lineto
stroke
newpath
59107 32751.4 moveto
59219.5 32695.2 lineto
59444.5 32695.2 lineto
59557 32751.4 lineto
59613.2 32863.9 lineto
59613.2 32920.1 lineto
59557 33032.6 lineto
59444.5 33088.9 lineto
59275.8 33088.9 lineto
59163.3 33145.1 lineto
59107 33257.6 lineto
59107 33313.8 lineto
59163.3 33426.3 lineto
59275.8 33482.6 lineto
59444.5 33482.6 lineto
59557 33426.3 lineto
stroke
newpath
60006.9 32245.2 moveto
60063.2 32301.5 lineto
60175.7 32470.2 lineto
60231.9 32582.7 lineto
60288.1 32751.4 lineto
60344.4 33032.6 lineto
60344.4 33257.6 lineto
60288.1 33538.8 lineto
60231.9 33707.5 lineto
60175.7 33820 lineto
60063.2 33988.8 lineto
60006.9 34045 lineto
stroke
34341 31670.4 128.809 cir0
0 0 0 setrgbcolor
0 0 0 setrgbcolor
newpath
35822.4 32317.2 moveto
35934.9 32317.2 lineto
36047.4 32261 lineto
36103.7 32204.7 lineto
36159.9 32092.2 lineto
36216.1 31867.3 lineto
36216.1 31586.1 lineto
36159.9 31361.1 lineto
36103.7 31248.6 lineto
36047.4 31192.4 lineto
35934.9 31136.1 lineto
35822.4 31136.1 lineto
35710 31192.4 lineto
35653.7 31248.6 lineto
35597.5 31361.1 lineto
35541.2 31586.1 lineto
35541.2 31867.3 lineto
35597.5 32092.2 lineto
35653.7 32204.7 lineto
35710 32261 lineto
35822.4 32317.2 lineto
stroke
newpath
36722.3 31248.6 moveto
36778.6 31192.4 lineto
36722.3 31136.1 lineto
36666.1 31192.4 lineto
36722.3 31248.6 lineto
36722.3 31136.1 lineto
stroke
newpath
37172.3 32317.2 moveto
37903.4 32317.2 lineto
37509.7 31867.3 lineto
37678.5 31867.3 lineto
37790.9 31811 lineto
37847.2 31754.8 lineto
37903.4 31642.3 lineto
37903.4 31361.1 lineto
37847.2 31248.6 lineto
37790.9 31192.4 lineto
37678.5 31136.1 lineto
37341 31136.1 lineto
37228.5 31192.4 lineto
37172.3 31248.6 lineto
stroke
newpath
38972 32317.2 moveto
38409.6 32317.2 lineto
38353.4 31754.8 lineto
38409.6 31811 lineto
38522.1 31867.3 lineto
38803.3 31867.3 lineto
38915.8 31811 lineto
38972 31754.8 lineto
39028.3 31642.3 lineto
39028.3 31361.1 lineto
38972 31248.6 lineto
38915.8 31192.4 lineto
38803.3 31136.1 lineto
38522.1 31136.1 lineto
38409.6 31192.4 lineto
38353.4 31248.6 lineto
stroke
newpath
39534.5 31136.1 moveto
39534.5 31923.5 lineto
stroke
newpath
39534.5 31811 moveto
39590.7 31867.3 lineto
39703.2 31923.5 lineto
39871.9 31923.5 lineto
39984.4 31867.3 lineto
40040.7 31754.8 lineto
40040.7 31136.1 lineto
stroke
newpath
40040.7 31754.8 moveto
40096.9 31867.3 lineto
40209.4 31923.5 lineto
40378.1 31923.5 lineto
40490.6 31867.3 lineto
40546.9 31754.8 lineto
40546.9 31136.1 lineto
stroke
newpath
41109.3 31136.1 moveto
41109.3 31923.5 lineto
stroke
newpath
41109.3 31811 moveto
41165.5 31867.3 lineto
41278 31923.5 lineto
41446.7 31923.5 lineto
41559.2 31867.3 lineto
41615.5 31754.8 lineto
41615.5 31136.1 lineto
stroke
newpath
41615.5 31754.8 moveto
41671.7 31867.3 lineto
41784.2 31923.5 lineto
41952.9 31923.5 lineto
42065.4 31867.3 lineto
42121.7 31754.8 lineto
42121.7 31136.1 lineto
stroke
newpath
44427.6 32373.5 moveto
43415.2 30854.9 lineto
stroke
newpath
45946.2 32317.2 moveto
46058.7 32317.2 lineto
46171.2 32261 lineto
46227.4 32204.7 lineto
46283.6 32092.2 lineto
46339.9 31867.3 lineto
46339.9 31586.1 lineto
46283.6 31361.1 lineto
46227.4 31248.6 lineto
46171.2 31192.4 lineto
46058.7 31136.1 lineto
45946.2 31136.1 lineto
45833.7 31192.4 lineto
45777.5 31248.6 lineto
45721.2 31361.1 lineto
45665 31586.1 lineto
45665 31867.3 lineto
45721.2 32092.2 lineto
45777.5 32204.7 lineto
45833.7 32261 lineto
45946.2 32317.2 lineto
stroke
newpath
46846.1 31248.6 moveto
46902.3 31192.4 lineto
46846.1 31136.1 lineto
46789.8 31192.4 lineto
46846.1 31248.6 lineto
46846.1 31136.1 lineto
stroke
newpath
47633.5 32317.2 moveto
47746 32317.2 lineto
47858.4 32261 lineto
47914.7 32204.7 lineto
47970.9 32092.2 lineto
48027.2 31867.3 lineto
48027.2 31586.1 lineto
47970.9 31361.1 lineto
47914.7 31248.6 lineto
47858.4 31192.4 lineto
47746 31136.1 lineto
47633.5 31136.1 lineto
47521 31192.4 lineto
47464.7 31248.6 lineto
47408.5 31361.1 lineto
47352.3 31586.1 lineto
47352.3 31867.3 lineto
47408.5 32092.2 lineto
47464.7 32204.7 lineto
47521 32261 lineto
47633.5 32317.2 lineto
stroke
newpath
49152 31136.1 moveto
48477.1 31136.1 lineto
stroke
newpath
48814.6 31136.1 moveto
48814.6 32317.2 lineto
48702.1 32148.5 lineto
48589.6 32036 lineto
48477.1 31979.8 lineto
stroke
newpath
50164.4 31923.5 moveto
50164.4 31136.1 lineto
stroke
newpath
49883.2 32373.5 moveto
49602 31529.8 lineto
50333.1 31529.8 lineto
stroke
newpath
50726.8 32317.2 moveto
50726.8 32092.2 lineto
stroke
newpath
51176.8 32317.2 moveto
51176.8 32092.2 lineto
stroke
newpath
52920.3 30686.2 moveto
52864.1 30742.4 lineto
52751.6 30911.1 lineto
52695.3 31023.6 lineto
52639.1 31192.4 lineto
52582.9 31473.6 lineto
52582.9 31698.5 lineto
52639.1 31979.8 lineto
52695.3 32148.5 lineto
52751.6 32261 lineto
52864.1 32429.7 lineto
52920.3 32485.9 lineto
stroke
newpath
53988.9 31136.1 moveto
53314 31136.1 lineto
stroke
newpath
53651.5 31136.1 moveto
53651.5 32317.2 lineto
53539 32148.5 lineto
53426.5 32036 lineto
53314 31979.8 lineto
stroke
newpath
54382.6 32317.2 moveto
55170 32317.2 lineto
54663.8 31136.1 lineto
stroke
newpath
55788.7 31811 moveto
55676.2 31867.3 lineto
55620 31923.5 lineto
55563.7 32036 lineto
55563.7 32092.2 lineto
55620 32204.7 lineto
55676.2 32261 lineto
55788.7 32317.2 lineto
56013.7 32317.2 lineto
56126.2 32261 lineto
56182.4 32204.7 lineto
56238.6 32092.2 lineto
56238.6 32036 lineto
56182.4 31923.5 lineto
56126.2 31867.3 lineto
56013.7 31811 lineto
55788.7 31811 lineto
55676.2 31754.8 lineto
55620 31698.5 lineto
55563.7 31586.1 lineto
55563.7 31361.1 lineto
55620 31248.6 lineto
55676.2 31192.4 lineto
55788.7 31136.1 lineto
56013.7 31136.1 lineto
56126.2 31192.4 lineto
56182.4 31248.6 lineto
56238.6 31361.1 lineto
56238.6 31586.1 lineto
56182.4 31698.5 lineto
56126.2 31754.8 lineto
56013.7 31811 lineto
stroke
newpath
57644.7 31136.1 moveto
57644.7 32317.2 lineto
stroke
newpath
58150.9 31136.1 moveto
58150.9 31754.8 lineto
58094.7 31867.3 lineto
57982.2 31923.5 lineto
57813.4 31923.5 lineto
57701 31867.3 lineto
57644.7 31811 lineto
stroke
newpath
58882.1 31136.1 moveto
58769.6 31192.4 lineto
58713.3 31248.6 lineto
58657.1 31361.1 lineto
58657.1 31698.5 lineto
58713.3 31811 lineto
58769.6 31867.3 lineto
58882.1 31923.5 lineto
59050.8 31923.5 lineto
59163.3 31867.3 lineto
59219.5 31811 lineto
59275.8 31698.5 lineto
59275.8 31361.1 lineto
59219.5 31248.6 lineto
59163.3 31192.4 lineto
59050.8 31136.1 lineto
58882.1 31136.1 lineto
stroke
newpath
59950.7 31136.1 moveto
59838.2 31192.4 lineto
59782 31304.8 lineto
59782 32317.2 lineto
stroke
newpath
60850.6 31192.4 moveto
60738.1 31136.1 lineto
60513.1 31136.1 lineto
60400.6 31192.4 lineto
60344.4 31304.8 lineto
60344.4 31754.8 lineto
60400.6 31867.3 lineto
60513.1 31923.5 lineto
60738.1 31923.5 lineto
60850.6 31867.3 lineto
60906.8 31754.8 lineto
60906.8 31642.3 lineto
60344.4 31529.8 lineto
stroke
newpath
61356.8 31192.4 moveto
61469.2 31136.1 lineto
61694.2 31136.1 lineto
61806.7 31192.4 lineto
61862.9 31304.8 lineto
61862.9 31361.1 lineto
61806.7 31473.6 lineto
61694.2 31529.8 lineto
61525.5 31529.8 lineto
61413 31586.1 lineto
61356.8 31698.5 lineto
61356.8 31754.8 lineto
61413 31867.3 lineto
61525.5 31923.5 lineto
61694.2 31923.5 lineto
61806.7 31867.3 lineto
stroke
newpath
62256.6 30686.2 moveto
62312.9 30742.4 lineto
62425.4 30911.1 lineto
62481.6 31023.6 lineto
62537.9 31192.4 lineto
62594.1 31473.6 lineto
62594.1 31698.5 lineto
62537.9 31979.8 lineto
62481.6 32148.5 lineto
62425.4 32261 lineto
62312.9 32429.7 lineto
62256.6 32485.9 lineto
stroke
newpath
34285.8 30295.4 moveto
34285.8 29927.4 lineto
stroke
newpath
34101.8 30111.4 moveto
34469.8 30111.4 lineto
stroke
0 0 0 setrgbcolor
0 0 0 setrgbcolor
newpath
35822.4 30758.2 moveto
35934.9 30758.2 lineto
36047.4 30701.9 lineto
36103.7 30645.7 lineto
36159.9 30533.2 lineto
36216.1 30308.2 lineto
36216.1 30027 lineto
36159.9 29802 lineto
36103.7 29689.5 lineto
36047.4 29633.3 lineto
35934.9 29577.1 lineto
35822.4 29577.1 lineto
35710 29633.3 lineto
35653.7 29689.5 lineto
35597.5 29802 lineto
35541.2 30027 lineto
35541.2 30308.2 lineto
35597.5 30533.2 lineto
35653.7 30645.7 lineto
35710 30701.9 lineto
35822.4 30758.2 lineto
stroke
newpath
36722.3 29689.5 moveto
36778.6 29633.3 lineto
36722.3 29577.1 lineto
36666.1 29633.3 lineto
36722.3 29689.5 lineto
36722.3 29577.1 lineto
stroke
newpath
37847.2 30758.2 moveto
37284.8 30758.2 lineto
37228.5 30195.7 lineto
37284.8 30252 lineto
37397.2 30308.2 lineto
37678.5 30308.2 lineto
37790.9 30252 lineto
37847.2 30195.7 lineto
37903.4 30083.2 lineto
37903.4 29802 lineto
37847.2 29689.5 lineto
37790.9 29633.3 lineto
37678.5 29577.1 lineto
37397.2 29577.1 lineto
37284.8 29633.3 lineto
37228.5 29689.5 lineto
stroke
newpath
38634.6 30758.2 moveto
38747.1 30758.2 lineto
38859.6 30701.9 lineto
38915.8 30645.7 lineto
38972 30533.2 lineto
39028.3 30308.2 lineto
39028.3 30027 lineto
38972 29802 lineto
38915.8 29689.5 lineto
38859.6 29633.3 lineto
38747.1 29577.1 lineto
38634.6 29577.1 lineto
38522.1 29633.3 lineto
38465.9 29689.5 lineto
38409.6 29802 lineto
38353.4 30027 lineto
38353.4 30308.2 lineto
38409.6 30533.2 lineto
38465.9 30645.7 lineto
38522.1 30701.9 lineto
38634.6 30758.2 lineto
stroke
newpath
39534.5 29577.1 moveto
39534.5 30364.5 lineto
stroke
newpath
39534.5 30252 moveto
39590.7 30308.2 lineto
39703.2 30364.5 lineto
39871.9 30364.5 lineto
39984.4 30308.2 lineto
40040.7 30195.7 lineto
40040.7 29577.1 lineto
stroke
newpath
40040.7 30195.7 moveto
40096.9 30308.2 lineto
40209.4 30364.5 lineto
40378.1 30364.5 lineto
40490.6 30308.2 lineto
40546.9 30195.7 lineto
40546.9 29577.1 lineto
stroke
newpath
41109.3 29577.1 moveto
41109.3 30364.5 lineto
stroke
newpath
41109.3 30252 moveto
41165.5 30308.2 lineto
41278 30364.5 lineto
41446.7 30364.5 lineto
41559.2 30308.2 lineto
41615.5 30195.7 lineto
41615.5 29577.1 lineto
stroke
newpath
41615.5 30195.7 moveto
41671.7 30308.2 lineto
41784.2 30364.5 lineto
41952.9 30364.5 lineto
42065.4 30308.2 lineto
42121.7 30195.7 lineto
42121.7 29577.1 lineto
stroke
newpath
44427.6 30814.4 moveto
43415.2 29295.8 lineto
stroke
newpath
45946.2 30758.2 moveto
46058.7 30758.2 lineto
46171.2 30701.9 lineto
46227.4 30645.7 lineto
46283.6 30533.2 lineto
46339.9 30308.2 lineto
46339.9 30027 lineto
46283.6 29802 lineto
46227.4 29689.5 lineto
46171.2 29633.3 lineto
46058.7 29577.1 lineto
45946.2 29577.1 lineto
45833.7 29633.3 lineto
45777.5 29689.5 lineto
45721.2 29802 lineto
45665 30027 lineto
45665 30308.2 lineto
45721.2 30533.2 lineto
45777.5 30645.7 lineto
45833.7 30701.9 lineto
45946.2 30758.2 lineto
stroke
newpath
46846.1 29689.5 moveto
46902.3 29633.3 lineto
46846.1 29577.1 lineto
46789.8 29633.3 lineto
46846.1 29689.5 lineto
46846.1 29577.1 lineto
stroke
newpath
47633.5 30758.2 moveto
47746 30758.2 lineto
47858.4 30701.9 lineto
47914.7 30645.7 lineto
47970.9 30533.2 lineto
48027.2 30308.2 lineto
48027.2 30027 lineto
47970.9 29802 lineto
47914.7 29689.5 lineto
47858.4 29633.3 lineto
47746 29577.1 lineto
47633.5 29577.1 lineto
47521 29633.3 lineto
47464.7 29689.5 lineto
47408.5 29802 lineto
47352.3 30027 lineto
47352.3 30308.2 lineto
47408.5 30533.2 lineto
47464.7 30645.7 lineto
47521 30701.9 lineto
47633.5 30758.2 lineto
stroke
newpath
48477.1 30645.7 moveto
48533.4 30701.9 lineto
48645.8 30758.2 lineto
48927.1 30758.2 lineto
49039.5 30701.9 lineto
49095.8 30645.7 lineto
49152 30533.2 lineto
49152 30420.7 lineto
49095.8 30252 lineto
48420.9 29577.1 lineto
49152 29577.1 lineto
stroke
newpath
49883.2 30758.2 moveto
49995.7 30758.2 lineto
50108.2 30701.9 lineto
50164.4 30645.7 lineto
50220.6 30533.2 lineto
50276.9 30308.2 lineto
50276.9 30027 lineto
50220.6 29802 lineto
50164.4 29689.5 lineto
50108.2 29633.3 lineto
49995.7 29577.1 lineto
49883.2 29577.1 lineto
49770.7 29633.3 lineto
49714.5 29689.5 lineto
49658.2 29802 lineto
49602 30027 lineto
49602 30308.2 lineto
49658.2 30533.2 lineto
49714.5 30645.7 lineto
49770.7 30701.9 lineto
49883.2 30758.2 lineto
stroke
newpath
50726.8 30758.2 moveto
50726.8 30533.2 lineto
stroke
newpath
51176.8 30758.2 moveto
51176.8 30533.2 lineto
stroke
newpath
52920.3 29127.1 moveto
52864.1 29183.4 lineto
52751.6 29352.1 lineto
52695.3 29464.6 lineto
52639.1 29633.3 lineto
52582.9 29914.5 lineto
52582.9 30139.5 lineto
52639.1 30420.7 lineto
52695.3 30589.4 lineto
52751.6 30701.9 lineto
52864.1 30870.6 lineto
52920.3 30926.9 lineto
stroke
newpath
53932.7 30758.2 moveto
53370.3 30758.2 lineto
53314 30195.7 lineto
53370.3 30252 lineto
53482.7 30308.2 lineto
53764 30308.2 lineto
53876.4 30252 lineto
53932.7 30195.7 lineto
53988.9 30083.2 lineto
53988.9 29802 lineto
53932.7 29689.5 lineto
53876.4 29633.3 lineto
53764 29577.1 lineto
53482.7 29577.1 lineto
53370.3 29633.3 lineto
53314 29689.5 lineto
stroke
newpath
55395 29577.1 moveto
55395 30758.2 lineto
stroke
newpath
55901.2 29577.1 moveto
55901.2 30195.7 lineto
55844.9 30308.2 lineto
55732.5 30364.5 lineto
55563.7 30364.5 lineto
55451.2 30308.2 lineto
55395 30252 lineto
stroke
newpath
56632.3 29577.1 moveto
56519.9 29633.3 lineto
56463.6 29689.5 lineto
56407.4 29802 lineto
56407.4 30139.5 lineto
56463.6 30252 lineto
56519.9 30308.2 lineto
56632.3 30364.5 lineto
56801.1 30364.5 lineto
56913.6 30308.2 lineto
56969.8 30252 lineto
57026 30139.5 lineto
57026 29802 lineto
56969.8 29689.5 lineto
56913.6 29633.3 lineto
56801.1 29577.1 lineto
56632.3 29577.1 lineto
stroke
newpath
57701 29577.1 moveto
57588.5 29633.3 lineto
57532.2 29745.8 lineto
57532.2 30758.2 lineto
stroke
newpath
58600.9 29633.3 moveto
58488.4 29577.1 lineto
58263.4 29577.1 lineto
58150.9 29633.3 lineto
58094.7 29745.8 lineto
58094.7 30195.7 lineto
58150.9 30308.2 lineto
58263.4 30364.5 lineto
58488.4 30364.5 lineto
58600.9 30308.2 lineto
58657.1 30195.7 lineto
58657.1 30083.2 lineto
58094.7 29970.8 lineto
stroke
newpath
59107 29633.3 moveto
59219.5 29577.1 lineto
59444.5 29577.1 lineto
59557 29633.3 lineto
59613.2 29745.8 lineto
59613.2 29802 lineto
59557 29914.5 lineto
59444.5 29970.8 lineto
59275.8 29970.8 lineto
59163.3 30027 lineto
59107 30139.5 lineto
59107 30195.7 lineto
59163.3 30308.2 lineto
59275.8 30364.5 lineto
59444.5 30364.5 lineto
59557 30308.2 lineto
stroke
newpath
60006.9 29127.1 moveto
60063.2 29183.4 lineto
60175.7 29352.1 lineto
60231.9 29464.6 lineto
60288.1 29633.3 lineto
60344.4 29914.5 lineto
60344.4 30139.5 lineto
60288.1 30420.7 lineto
60231.9 30589.4 lineto
60175.7 30701.9 lineto
60063.2 30870.6 lineto
60006.9 30926.9 lineto
stroke
newpath
34362 28292.1 moveto
34362 28812.5 lineto
33841.5 28812.5 lineto
33841.5 28292.1 lineto
34362 28292.1 lineto
poly0
0 0 0 setrgbcolor
0 0 0 setrgbcolor
newpath
36216.1 28018 moveto
35541.2 28018 lineto
stroke
newpath
35878.7 28018 moveto
35878.7 29199.1 lineto
35766.2 29030.4 lineto
35653.7 28917.9 lineto
35541.2 28861.7 lineto
stroke
newpath
36722.3 28130.5 moveto
36778.6 28074.2 lineto
36722.3 28018 lineto
36666.1 28074.2 lineto
36722.3 28130.5 lineto
36722.3 28018 lineto
stroke
newpath
37509.7 29199.1 moveto
37622.2 29199.1 lineto
37734.7 29142.9 lineto
37790.9 29086.6 lineto
37847.2 28974.1 lineto
37903.4 28749.2 lineto
37903.4 28468 lineto
37847.2 28243 lineto
37790.9 28130.5 lineto
37734.7 28074.2 lineto
37622.2 28018 lineto
37509.7 28018 lineto
37397.2 28074.2 lineto
37341 28130.5 lineto
37284.8 28243 lineto
37228.5 28468 lineto
37228.5 28749.2 lineto
37284.8 28974.1 lineto
37341 29086.6 lineto
37397.2 29142.9 lineto
37509.7 29199.1 lineto
stroke
newpath
38634.6 29199.1 moveto
38747.1 29199.1 lineto
38859.6 29142.9 lineto
38915.8 29086.6 lineto
38972 28974.1 lineto
39028.3 28749.2 lineto
39028.3 28468 lineto
38972 28243 lineto
38915.8 28130.5 lineto
38859.6 28074.2 lineto
38747.1 28018 lineto
38634.6 28018 lineto
38522.1 28074.2 lineto
38465.9 28130.5 lineto
38409.6 28243 lineto
38353.4 28468 lineto
38353.4 28749.2 lineto
38409.6 28974.1 lineto
38465.9 29086.6 lineto
38522.1 29142.9 lineto
38634.6 29199.1 lineto
stroke
newpath
39534.5 28018 moveto
39534.5 28805.4 lineto
stroke
newpath
39534.5 28692.9 moveto
39590.7 28749.2 lineto
39703.2 28805.4 lineto
39871.9 28805.4 lineto
39984.4 28749.2 lineto
40040.7 28636.7 lineto
40040.7 28018 lineto
stroke
newpath
40040.7 28636.7 moveto
40096.9 28749.2 lineto
40209.4 28805.4 lineto
40378.1 28805.4 lineto
40490.6 28749.2 lineto
40546.9 28636.7 lineto
40546.9 28018 lineto
stroke
newpath
41109.3 28018 moveto
41109.3 28805.4 lineto
stroke
newpath
41109.3 28692.9 moveto
41165.5 28749.2 lineto
41278 28805.4 lineto
41446.7 28805.4 lineto
41559.2 28749.2 lineto
41615.5 28636.7 lineto
41615.5 28018 lineto
stroke
newpath
41615.5 28636.7 moveto
41671.7 28749.2 lineto
41784.2 28805.4 lineto
41952.9 28805.4 lineto
42065.4 28749.2 lineto
42121.7 28636.7 lineto
42121.7 28018 lineto
stroke
newpath
44427.6 29255.4 moveto
43415.2 27736.8 lineto
stroke
newpath
45946.2 29199.1 moveto
46058.7 29199.1 lineto
46171.2 29142.9 lineto
46227.4 29086.6 lineto
46283.6 28974.1 lineto
46339.9 28749.2 lineto
46339.9 28468 lineto
46283.6 28243 lineto
46227.4 28130.5 lineto
46171.2 28074.2 lineto
46058.7 28018 lineto
45946.2 28018 lineto
45833.7 28074.2 lineto
45777.5 28130.5 lineto
45721.2 28243 lineto
45665 28468 lineto
45665 28749.2 lineto
45721.2 28974.1 lineto
45777.5 29086.6 lineto
45833.7 29142.9 lineto
45946.2 29199.1 lineto
stroke
newpath
46846.1 28130.5 moveto
46902.3 28074.2 lineto
46846.1 28018 lineto
46789.8 28074.2 lineto
46846.1 28130.5 lineto
46846.1 28018 lineto
stroke
newpath
47633.5 29199.1 moveto
47746 29199.1 lineto
47858.4 29142.9 lineto
47914.7 29086.6 lineto
47970.9 28974.1 lineto
48027.2 28749.2 lineto
48027.2 28468 lineto
47970.9 28243 lineto
47914.7 28130.5 lineto
47858.4 28074.2 lineto
47746 28018 lineto
47633.5 28018 lineto
47521 28074.2 lineto
47464.7 28130.5 lineto
47408.5 28243 lineto
47352.3 28468 lineto
47352.3 28749.2 lineto
47408.5 28974.1 lineto
47464.7 29086.6 lineto
47521 29142.9 lineto
47633.5 29199.1 lineto
stroke
newpath
48420.9 29199.1 moveto
49152 29199.1 lineto
48758.3 28749.2 lineto
48927.1 28749.2 lineto
49039.5 28692.9 lineto
49095.8 28636.7 lineto
49152 28524.2 lineto
49152 28243 lineto
49095.8 28130.5 lineto
49039.5 28074.2 lineto
48927.1 28018 lineto
48589.6 28018 lineto
48477.1 28074.2 lineto
48420.9 28130.5 lineto
stroke
newpath
49714.5 28018 moveto
49939.4 28018 lineto
50051.9 28074.2 lineto
50108.2 28130.5 lineto
50220.6 28299.2 lineto
50276.9 28524.2 lineto
50276.9 28974.1 lineto
50220.6 29086.6 lineto
50164.4 29142.9 lineto
50051.9 29199.1 lineto
49826.9 29199.1 lineto
49714.5 29142.9 lineto
49658.2 29086.6 lineto
49602 28974.1 lineto
49602 28692.9 lineto
49658.2 28580.4 lineto
49714.5 28524.2 lineto
49826.9 28468 lineto
50051.9 28468 lineto
50164.4 28524.2 lineto
50220.6 28580.4 lineto
50276.9 28692.9 lineto
stroke
newpath
50726.8 29199.1 moveto
50726.8 28974.1 lineto
stroke
newpath
51176.8 29199.1 moveto
51176.8 28974.1 lineto
stroke
newpath
52920.3 27568.1 moveto
52864.1 27624.3 lineto
52751.6 27793 lineto
52695.3 27905.5 lineto
52639.1 28074.2 lineto
52582.9 28355.5 lineto
52582.9 28580.4 lineto
52639.1 28861.7 lineto
52695.3 29030.4 lineto
52751.6 29142.9 lineto
52864.1 29311.6 lineto
52920.3 29367.8 lineto
stroke
newpath
53257.8 29199.1 moveto
54045.2 29199.1 lineto
53539 28018 lineto
stroke
newpath
55395 28018 moveto
55395 29199.1 lineto
stroke
newpath
55901.2 28018 moveto
55901.2 28636.7 lineto
55844.9 28749.2 lineto
55732.5 28805.4 lineto
55563.7 28805.4 lineto
55451.2 28749.2 lineto
55395 28692.9 lineto
stroke
newpath
56632.3 28018 moveto
56519.9 28074.2 lineto
56463.6 28130.5 lineto
56407.4 28243 lineto
56407.4 28580.4 lineto
56463.6 28692.9 lineto
56519.9 28749.2 lineto
56632.3 28805.4 lineto
56801.1 28805.4 lineto
56913.6 28749.2 lineto
56969.8 28692.9 lineto
57026 28580.4 lineto
57026 28243 lineto
56969.8 28130.5 lineto
56913.6 28074.2 lineto
56801.1 28018 lineto
56632.3 28018 lineto
stroke
newpath
57701 28018 moveto
57588.5 28074.2 lineto
57532.2 28186.7 lineto
57532.2 29199.1 lineto
stroke
newpath
58600.9 28074.2 moveto
58488.4 28018 lineto
58263.4 28018 lineto
58150.9 28074.2 lineto
58094.7 28186.7 lineto
58094.7 28636.7 lineto
58150.9 28749.2 lineto
58263.4 28805.4 lineto
58488.4 28805.4 lineto
58600.9 28749.2 lineto
58657.1 28636.7 lineto
58657.1 28524.2 lineto
58094.7 28411.7 lineto
stroke
newpath
59107 28074.2 moveto
59219.5 28018 lineto
59444.5 28018 lineto
59557 28074.2 lineto
59613.2 28186.7 lineto
59613.2 28243 lineto
59557 28355.5 lineto
59444.5 28411.7 lineto
59275.8 28411.7 lineto
59163.3 28468 lineto
59107 28580.4 lineto
59107 28636.7 lineto
59163.3 28749.2 lineto
59275.8 28805.4 lineto
59444.5 28805.4 lineto
59557 28749.2 lineto
stroke
newpath
60006.9 27568.1 moveto
60063.2 27624.3 lineto
60175.7 27793 lineto
60231.9 27905.5 lineto
60288.1 28074.2 lineto
60344.4 28355.5 lineto
60344.4 28580.4 lineto
60288.1 28861.7 lineto
60231.9 29030.4 lineto
60175.7 29142.9 lineto
60063.2 29311.6 lineto
60006.9 29367.8 lineto
stroke
newpath
34065 26588.4 moveto
34469.8 26993.3 lineto
34065 27398.1 lineto
33660.1 26993.3 lineto
34065 26588.4 lineto
poly0
0 0 0 setrgbcolor
0 0 0 setrgbcolor
newpath
36216.1 26459 moveto
35541.2 26459 lineto
stroke
newpath
35878.7 26459 moveto
35878.7 27640.1 lineto
35766.2 27471.3 lineto
35653.7 27358.8 lineto
35541.2 27302.6 lineto
stroke
newpath
36722.3 26571.4 moveto
36778.6 26515.2 lineto
36722.3 26459 lineto
36666.1 26515.2 lineto
36722.3 26571.4 lineto
36722.3 26459 lineto
stroke
newpath
37903.4 26459 moveto
37228.5 26459 lineto
stroke
newpath
37566 26459 moveto
37566 27640.1 lineto
37453.5 27471.3 lineto
37341 27358.8 lineto
37228.5 27302.6 lineto
stroke
newpath
38634.6 27640.1 moveto
38747.1 27640.1 lineto
38859.6 27583.8 lineto
38915.8 27527.6 lineto
38972 27415.1 lineto
39028.3 27190.1 lineto
39028.3 26908.9 lineto
38972 26683.9 lineto
38915.8 26571.4 lineto
38859.6 26515.2 lineto
38747.1 26459 lineto
38634.6 26459 lineto
38522.1 26515.2 lineto
38465.9 26571.4 lineto
38409.6 26683.9 lineto
38353.4 26908.9 lineto
38353.4 27190.1 lineto
38409.6 27415.1 lineto
38465.9 27527.6 lineto
38522.1 27583.8 lineto
38634.6 27640.1 lineto
stroke
newpath
39534.5 26459 moveto
39534.5 27246.4 lineto
stroke
newpath
39534.5 27133.9 moveto
39590.7 27190.1 lineto
39703.2 27246.4 lineto
39871.9 27246.4 lineto
39984.4 27190.1 lineto
40040.7 27077.6 lineto
40040.7 26459 lineto
stroke
newpath
40040.7 27077.6 moveto
40096.9 27190.1 lineto
40209.4 27246.4 lineto
40378.1 27246.4 lineto
40490.6 27190.1 lineto
40546.9 27077.6 lineto
40546.9 26459 lineto
stroke
newpath
41109.3 26459 moveto
41109.3 27246.4 lineto
stroke
newpath
41109.3 27133.9 moveto
41165.5 27190.1 lineto
41278 27246.4 lineto
41446.7 27246.4 lineto
41559.2 27190.1 lineto
41615.5 27077.6 lineto
41615.5 26459 lineto
stroke
newpath
41615.5 27077.6 moveto
41671.7 27190.1 lineto
41784.2 27246.4 lineto
41952.9 27246.4 lineto
42065.4 27190.1 lineto
42121.7 27077.6 lineto
42121.7 26459 lineto
stroke
newpath
44427.6 27696.3 moveto
43415.2 26177.7 lineto
stroke
newpath
45946.2 27640.1 moveto
46058.7 27640.1 lineto
46171.2 27583.8 lineto
46227.4 27527.6 lineto
46283.6 27415.1 lineto
46339.9 27190.1 lineto
46339.9 26908.9 lineto
46283.6 26683.9 lineto
46227.4 26571.4 lineto
46171.2 26515.2 lineto
46058.7 26459 lineto
45946.2 26459 lineto
45833.7 26515.2 lineto
45777.5 26571.4 lineto
45721.2 26683.9 lineto
45665 26908.9 lineto
45665 27190.1 lineto
45721.2 27415.1 lineto
45777.5 27527.6 lineto
45833.7 27583.8 lineto
45946.2 27640.1 lineto
stroke
newpath
46846.1 26571.4 moveto
46902.3 26515.2 lineto
46846.1 26459 lineto
46789.8 26515.2 lineto
46846.1 26571.4 lineto
46846.1 26459 lineto
stroke
newpath
47633.5 27640.1 moveto
47746 27640.1 lineto
47858.4 27583.8 lineto
47914.7 27527.6 lineto
47970.9 27415.1 lineto
48027.2 27190.1 lineto
48027.2 26908.9 lineto
47970.9 26683.9 lineto
47914.7 26571.4 lineto
47858.4 26515.2 lineto
47746 26459 lineto
47633.5 26459 lineto
47521 26515.2 lineto
47464.7 26571.4 lineto
47408.5 26683.9 lineto
47352.3 26908.9 lineto
47352.3 27190.1 lineto
47408.5 27415.1 lineto
47464.7 27527.6 lineto
47521 27583.8 lineto
47633.5 27640.1 lineto
stroke
newpath
49039.5 27246.4 moveto
49039.5 26459 lineto
stroke
newpath
48758.3 27696.3 moveto
48477.1 26852.7 lineto
49208.3 26852.7 lineto
stroke
newpath
49545.7 27640.1 moveto
50276.9 27640.1 lineto
49883.2 27190.1 lineto
50051.9 27190.1 lineto
50164.4 27133.9 lineto
50220.6 27077.6 lineto
50276.9 26965.1 lineto
50276.9 26683.9 lineto
50220.6 26571.4 lineto
50164.4 26515.2 lineto
50051.9 26459 lineto
49714.5 26459 lineto
49602 26515.2 lineto
49545.7 26571.4 lineto
stroke
newpath
50726.8 27640.1 moveto
50726.8 27415.1 lineto
stroke
newpath
51176.8 27640.1 moveto
51176.8 27415.1 lineto
stroke
newpath
52920.3 26009 moveto
52864.1 26065.3 lineto
52751.6 26234 lineto
52695.3 26346.5 lineto
52639.1 26515.2 lineto
52582.9 26796.4 lineto
52582.9 27021.4 lineto
52639.1 27302.6 lineto
52695.3 27471.3 lineto
52751.6 27583.8 lineto
52864.1 27752.5 lineto
52920.3 27808.8 lineto
stroke
newpath
53314 27527.6 moveto
53370.3 27583.8 lineto
53482.7 27640.1 lineto
53764 27640.1 lineto
53876.4 27583.8 lineto
53932.7 27527.6 lineto
53988.9 27415.1 lineto
53988.9 27302.6 lineto
53932.7 27133.9 lineto
53257.8 26459 lineto
53988.9 26459 lineto
stroke
newpath
55395 26459 moveto
55395 27640.1 lineto
stroke
newpath
55901.2 26459 moveto
55901.2 27077.6 lineto
55844.9 27190.1 lineto
55732.5 27246.4 lineto
55563.7 27246.4 lineto
55451.2 27190.1 lineto
55395 27133.9 lineto
stroke
newpath
56632.3 26459 moveto
56519.9 26515.2 lineto
56463.6 26571.4 lineto
56407.4 26683.9 lineto
56407.4 27021.4 lineto
56463.6 27133.9 lineto
56519.9 27190.1 lineto
56632.3 27246.4 lineto
56801.1 27246.4 lineto
56913.6 27190.1 lineto
56969.8 27133.9 lineto
57026 27021.4 lineto
57026 26683.9 lineto
56969.8 26571.4 lineto
56913.6 26515.2 lineto
56801.1 26459 lineto
56632.3 26459 lineto
stroke
newpath
57701 26459 moveto
57588.5 26515.2 lineto
57532.2 26627.7 lineto
57532.2 27640.1 lineto
stroke
newpath
58600.9 26515.2 moveto
58488.4 26459 lineto
58263.4 26459 lineto
58150.9 26515.2 lineto
58094.7 26627.7 lineto
58094.7 27077.6 lineto
58150.9 27190.1 lineto
58263.4 27246.4 lineto
58488.4 27246.4 lineto
58600.9 27190.1 lineto
58657.1 27077.6 lineto
58657.1 26965.1 lineto
58094.7 26852.7 lineto
stroke
newpath
59107 26515.2 moveto
59219.5 26459 lineto
59444.5 26459 lineto
59557 26515.2 lineto
59613.2 26627.7 lineto
59613.2 26683.9 lineto
59557 26796.4 lineto
59444.5 26852.7 lineto
59275.8 26852.7 lineto
59163.3 26908.9 lineto
59107 27021.4 lineto
59107 27077.6 lineto
59163.3 27190.1 lineto
59275.8 27246.4 lineto
59444.5 27246.4 lineto
59557 27190.1 lineto
stroke
newpath
60006.9 26009 moveto
60063.2 26065.3 lineto
60175.7 26234 lineto
60231.9 26346.5 lineto
60288.1 26515.2 lineto
60344.4 26796.4 lineto
60344.4 27021.4 lineto
60288.1 27302.6 lineto
60231.9 27471.3 lineto
60175.7 27583.8 lineto
60063.2 27752.5 lineto
60006.9 27808.8 lineto
stroke
newpath
33498.2 25920 moveto
34469.8 24948.4 lineto
stroke
newpath
34469.8 25920 moveto
33498.2 24948.4 lineto
stroke
33984 25434.2 485.792 cir0
0 0 0 setrgbcolor
0 0 0 setrgbcolor
newpath
36216.1 24899.9 moveto
35541.2 24899.9 lineto
stroke
newpath
35878.7 24899.9 moveto
35878.7 26081 lineto
35766.2 25912.3 lineto
35653.7 25799.8 lineto
35541.2 25743.5 lineto
stroke
newpath
36722.3 25012.4 moveto
36778.6 24956.1 lineto
36722.3 24899.9 lineto
36666.1 24956.1 lineto
36722.3 25012.4 lineto
36722.3 24899.9 lineto
stroke
newpath
37172.3 26081 moveto
37903.4 26081 lineto
37509.7 25631.1 lineto
37678.5 25631.1 lineto
37790.9 25574.8 lineto
37847.2 25518.6 lineto
37903.4 25406.1 lineto
37903.4 25124.9 lineto
37847.2 25012.4 lineto
37790.9 24956.1 lineto
37678.5 24899.9 lineto
37341 24899.9 lineto
37228.5 24956.1 lineto
37172.3 25012.4 lineto
stroke
newpath
38353.4 25968.5 moveto
38409.6 26024.8 lineto
38522.1 26081 lineto
38803.3 26081 lineto
38915.8 26024.8 lineto
38972 25968.5 lineto
39028.3 25856 lineto
39028.3 25743.5 lineto
38972 25574.8 lineto
38297.1 24899.9 lineto
39028.3 24899.9 lineto
stroke
newpath
39534.5 24899.9 moveto
39534.5 25687.3 lineto
stroke
newpath
39534.5 25574.8 moveto
39590.7 25631.1 lineto
39703.2 25687.3 lineto
39871.9 25687.3 lineto
39984.4 25631.1 lineto
40040.7 25518.6 lineto
40040.7 24899.9 lineto
stroke
newpath
40040.7 25518.6 moveto
40096.9 25631.1 lineto
40209.4 25687.3 lineto
40378.1 25687.3 lineto
40490.6 25631.1 lineto
40546.9 25518.6 lineto
40546.9 24899.9 lineto
stroke
newpath
41109.3 24899.9 moveto
41109.3 25687.3 lineto
stroke
newpath
41109.3 25574.8 moveto
41165.5 25631.1 lineto
41278 25687.3 lineto
41446.7 25687.3 lineto
41559.2 25631.1 lineto
41615.5 25518.6 lineto
41615.5 24899.9 lineto
stroke
newpath
41615.5 25518.6 moveto
41671.7 25631.1 lineto
41784.2 25687.3 lineto
41952.9 25687.3 lineto
42065.4 25631.1 lineto
42121.7 25518.6 lineto
42121.7 24899.9 lineto
stroke
newpath
44427.6 26137.2 moveto
43415.2 24618.7 lineto
stroke
newpath
45946.2 26081 moveto
46058.7 26081 lineto
46171.2 26024.8 lineto
46227.4 25968.5 lineto
46283.6 25856 lineto
46339.9 25631.1 lineto
46339.9 25349.8 lineto
46283.6 25124.9 lineto
46227.4 25012.4 lineto
46171.2 24956.1 lineto
46058.7 24899.9 lineto
45946.2 24899.9 lineto
45833.7 24956.1 lineto
45777.5 25012.4 lineto
45721.2 25124.9 lineto
45665 25349.8 lineto
45665 25631.1 lineto
45721.2 25856 lineto
45777.5 25968.5 lineto
45833.7 26024.8 lineto
45946.2 26081 lineto
stroke
newpath
46846.1 25012.4 moveto
46902.3 24956.1 lineto
46846.1 24899.9 lineto
46789.8 24956.1 lineto
46846.1 25012.4 lineto
46846.1 24899.9 lineto
stroke
newpath
47633.5 26081 moveto
47746 26081 lineto
47858.4 26024.8 lineto
47914.7 25968.5 lineto
47970.9 25856 lineto
48027.2 25631.1 lineto
48027.2 25349.8 lineto
47970.9 25124.9 lineto
47914.7 25012.4 lineto
47858.4 24956.1 lineto
47746 24899.9 lineto
47633.5 24899.9 lineto
47521 24956.1 lineto
47464.7 25012.4 lineto
47408.5 25124.9 lineto
47352.3 25349.8 lineto
47352.3 25631.1 lineto
47408.5 25856 lineto
47464.7 25968.5 lineto
47521 26024.8 lineto
47633.5 26081 lineto
stroke
newpath
49095.8 26081 moveto
48533.4 26081 lineto
48477.1 25518.6 lineto
48533.4 25574.8 lineto
48645.8 25631.1 lineto
48927.1 25631.1 lineto
49039.5 25574.8 lineto
49095.8 25518.6 lineto
49152 25406.1 lineto
49152 25124.9 lineto
49095.8 25012.4 lineto
49039.5 24956.1 lineto
48927.1 24899.9 lineto
48645.8 24899.9 lineto
48533.4 24956.1 lineto
48477.1 25012.4 lineto
stroke
newpath
49602 25968.5 moveto
49658.2 26024.8 lineto
49770.7 26081 lineto
50051.9 26081 lineto
50164.4 26024.8 lineto
50220.6 25968.5 lineto
50276.9 25856 lineto
50276.9 25743.5 lineto
50220.6 25574.8 lineto
49545.7 24899.9 lineto
50276.9 24899.9 lineto
stroke
newpath
50726.8 26081 moveto
50726.8 25856 lineto
stroke
newpath
51176.8 26081 moveto
51176.8 25856 lineto
stroke
newpath
52920.3 24450 moveto
52864.1 24506.2 lineto
52751.6 24674.9 lineto
52695.3 24787.4 lineto
52639.1 24956.1 lineto
52582.9 25237.4 lineto
52582.9 25462.3 lineto
52639.1 25743.5 lineto
52695.3 25912.3 lineto
52751.6 26024.8 lineto
52864.1 26193.5 lineto
52920.3 26249.7 lineto
stroke
newpath
53257.8 26081 moveto
53988.9 26081 lineto
53595.2 25631.1 lineto
53764 25631.1 lineto
53876.4 25574.8 lineto
53932.7 25518.6 lineto
53988.9 25406.1 lineto
53988.9 25124.9 lineto
53932.7 25012.4 lineto
53876.4 24956.1 lineto
53764 24899.9 lineto
53426.5 24899.9 lineto
53314 24956.1 lineto
53257.8 25012.4 lineto
stroke
newpath
55395 24899.9 moveto
55395 26081 lineto
stroke
newpath
55901.2 24899.9 moveto
55901.2 25518.6 lineto
55844.9 25631.1 lineto
55732.5 25687.3 lineto
55563.7 25687.3 lineto
55451.2 25631.1 lineto
55395 25574.8 lineto
stroke
newpath
56632.3 24899.9 moveto
56519.9 24956.1 lineto
56463.6 25012.4 lineto
56407.4 25124.9 lineto
56407.4 25462.3 lineto
56463.6 25574.8 lineto
56519.9 25631.1 lineto
56632.3 25687.3 lineto
56801.1 25687.3 lineto
56913.6 25631.1 lineto
56969.8 25574.8 lineto
57026 25462.3 lineto
57026 25124.9 lineto
56969.8 25012.4 lineto
56913.6 24956.1 lineto
56801.1 24899.9 lineto
56632.3 24899.9 lineto
stroke
newpath
57701 24899.9 moveto
57588.5 24956.1 lineto
57532.2 25068.6 lineto
57532.2 26081 lineto
stroke
newpath
58600.9 24956.1 moveto
58488.4 24899.9 lineto
58263.4 24899.9 lineto
58150.9 24956.1 lineto
58094.7 25068.6 lineto
58094.7 25518.6 lineto
58150.9 25631.1 lineto
58263.4 25687.3 lineto
58488.4 25687.3 lineto
58600.9 25631.1 lineto
58657.1 25518.6 lineto
58657.1 25406.1 lineto
58094.7 25293.6 lineto
stroke
newpath
59107 24956.1 moveto
59219.5 24899.9 lineto
59444.5 24899.9 lineto
59557 24956.1 lineto
59613.2 25068.6 lineto
59613.2 25124.9 lineto
59557 25237.4 lineto
59444.5 25293.6 lineto
59275.8 25293.6 lineto
59163.3 25349.8 lineto
59107 25462.3 lineto
59107 25518.6 lineto
59163.3 25631.1 lineto
59275.8 25687.3 lineto
59444.5 25687.3 lineto
59557 25631.1 lineto
stroke
newpath
60006.9 24450 moveto
60063.2 24506.2 lineto
60175.7 24674.9 lineto
60231.9 24787.4 lineto
60288.1 24956.1 lineto
60344.4 25237.4 lineto
60344.4 25462.3 lineto
60288.1 25743.5 lineto
60231.9 25912.3 lineto
60175.7 26024.8 lineto
60063.2 26193.5 lineto
60006.9 26249.7 lineto
stroke
showpage
grestore
%%EOF
