%!PS-Adobe-3.0
%%Creator: PCBNEW
%%CreationDate: Sat May 23 11:07:24 2020
%%Title: /home/tijls/Nextcloud/Projects/KNX/KNX-RPi-HAT/ncn5100rh-1/batch-2020a/gerbers/ncn5100rh-1-NPTH-drl_map.ps
%%Pages: 1
%%PageOrder: Ascend
%%BoundingBox: 0 0 596 842
%%DocumentMedia: A4 595 842 0 () ()
%%Orientation: Landscape
%%EndComments
%%BeginProlog
/line { newpath moveto lineto stroke } bind def
/cir0 { newpath 0 360 arc stroke } bind def
/cir1 { newpath 0 360 arc gsave fill grestore stroke } bind def
/cir2 { newpath 0 360 arc gsave fill grestore stroke } bind def
/arc0 { newpath arc stroke } bind def
/arc1 { newpath 4 index 4 index moveto arc closepath gsave fill
    grestore stroke } bind def
/arc2 { newpath 4 index 4 index moveto arc closepath gsave fill
    grestore stroke } bind def
/poly0 { stroke } bind def
/poly1 { closepath gsave fill grestore stroke } bind def
/poly2 { closepath gsave fill grestore stroke } bind def
/rect0 { rectstroke } bind def
/rect1 { rectfill } bind def
/rect2 { rectfill } bind def
/linemode0 { 0 setlinecap 0 setlinejoin 0 setlinewidth } bind def
/linemode1 { 1 setlinecap 1 setlinejoin } bind def
/dashedline { [200] 100 setdash } bind def
/solidline { [] 0 setdash } bind def
/phantomshow { moveto
    /KicadFont findfont 0.000001 scalefont setfont
    show } bind def
/textshow { gsave
    findfont exch scalefont setfont concat 1 scale 0 0 moveto show
    } bind def
/reencodefont {
  findfont dup length dict begin
  { 1 index /FID ne
    { def }
    { pop pop } ifelse
  } forall
  /Encoding ISOLatin1Encoding def
  currentdict
  end } bind def
/KicadFont /Helvetica reencodefont definefont pop
/KicadFont-Bold /Helvetica-Bold reencodefont definefont pop
/KicadFont-Oblique /Helvetica-Oblique reencodefont definefont pop
/KicadFont-BoldOblique /Helvetica-BoldOblique reencodefont definefont pop
%%EndProlog
%%Page: 1 1
%%BeginPageSetup
gsave
0.0072 0.0072 scale
linemode1
82680 0 translate 90 rotate
93.4782 setlinewidth
%%EndPageSetup
0 0 0 setrgbcolor
147.21 setlinewidth
67665.6 51067.5 736.049 -0 180 arc0
0 0 0 setrgbcolor
67665.6 40026.8 736.049 180 360 arc0
0 0 0 setrgbcolor
newpath
66929.6 51067.5 moveto
66929.6 40026.8 lineto
stroke
0 0 0 setrgbcolor
newpath
68401.7 40026.8 moveto
68401.7 51067.5 lineto
stroke
0 0 0 setrgbcolor
36751.6 39290.8 2208.15 180 270 arc0
0 0 0 setrgbcolor
80178.4 39290.8 2208.15 -90 -0 arc0
0 0 0 setrgbcolor
80178.4 76461.2 2208.15 -0 90 arc0
0 0 0 setrgbcolor
36751.6 76461.2 2208.15 90 180 arc0
0 0 0 setrgbcolor
35279.5 50699.5 736.049 90 180 arc0
0 0 0 setrgbcolor
37487.6 52171.6 736.049 -90 -0 arc0
0 0 0 setrgbcolor
35279.5 64684.5 736.049 180 270 arc0
0 0 0 setrgbcolor
37487.6 63212.4 736.049 -0 90 arc0
0 0 0 setrgbcolor
newpath
34543.4 64684.5 moveto
34543.4 76461.2 lineto
stroke
0 0 0 setrgbcolor
newpath
37487.6 63948.4 moveto
35279.5 63948.4 lineto
stroke
0 0 0 setrgbcolor
newpath
38223.7 52171.6 moveto
38223.7 63212.4 lineto
stroke
0 0 0 setrgbcolor
newpath
35279.5 51435.6 moveto
37487.6 51435.6 lineto
stroke
0 0 0 setrgbcolor
newpath
34543.4 39290.8 moveto
34543.4 50699.5 lineto
stroke
0 0 0 setrgbcolor
newpath
80178.4 37082.6 moveto
36751.6 37082.6 lineto
stroke
0 0 0 setrgbcolor
newpath
82386.6 39290.8 moveto
82386.6 76461.2 lineto
stroke
0 0 0 setrgbcolor
newpath
80178.4 78669.4 moveto
36751.6 78669.4 lineto
stroke
78.7396 setlinewidth
newpath
40347.2 77017 moveto
41061.1 76303 lineto
stroke
newpath
41061.1 77017 moveto
40347.2 76303 lineto
stroke
newpath
40347.2 75147.4 moveto
41061.1 74433.4 lineto
stroke
newpath
41061.1 75147.4 moveto
40347.2 74433.4 lineto
stroke
newpath
42216.7 77017 moveto
42930.7 76303 lineto
stroke
newpath
42930.7 77017 moveto
42216.7 76303 lineto
stroke
newpath
42216.7 75147.4 moveto
42930.7 74433.4 lineto
stroke
newpath
42930.7 75147.4 moveto
42216.7 74433.4 lineto
stroke
newpath
44086.3 77017 moveto
44800.2 76303 lineto
stroke
newpath
44800.2 77017 moveto
44086.3 76303 lineto
stroke
newpath
44086.3 75147.4 moveto
44800.2 74433.4 lineto
stroke
newpath
44800.2 75147.4 moveto
44086.3 74433.4 lineto
stroke
newpath
45955.8 77017 moveto
46669.8 76303 lineto
stroke
newpath
46669.8 77017 moveto
45955.8 76303 lineto
stroke
newpath
45955.8 75147.4 moveto
46669.8 74433.4 lineto
stroke
newpath
46669.8 75147.4 moveto
45955.8 74433.4 lineto
stroke
newpath
47825.4 77017 moveto
48539.4 76303 lineto
stroke
newpath
48539.4 77017 moveto
47825.4 76303 lineto
stroke
newpath
47825.4 75147.4 moveto
48539.4 74433.4 lineto
stroke
newpath
48539.4 75147.4 moveto
47825.4 74433.4 lineto
stroke
newpath
49695 77017 moveto
50408.9 76303 lineto
stroke
newpath
50408.9 77017 moveto
49695 76303 lineto
stroke
newpath
49695 75147.4 moveto
50408.9 74433.4 lineto
stroke
newpath
50408.9 75147.4 moveto
49695 74433.4 lineto
stroke
newpath
51564.5 77017 moveto
52278.5 76303 lineto
stroke
newpath
52278.5 77017 moveto
51564.5 76303 lineto
stroke
newpath
51564.5 75147.4 moveto
52278.5 74433.4 lineto
stroke
newpath
52278.5 75147.4 moveto
51564.5 74433.4 lineto
stroke
newpath
53434.1 77017 moveto
54148.1 76303 lineto
stroke
newpath
54148.1 77017 moveto
53434.1 76303 lineto
stroke
newpath
53434.1 75147.4 moveto
54148.1 74433.4 lineto
stroke
newpath
54148.1 75147.4 moveto
53434.1 74433.4 lineto
stroke
newpath
55303.7 77017 moveto
56017.6 76303 lineto
stroke
newpath
56017.6 77017 moveto
55303.7 76303 lineto
stroke
newpath
55303.7 75147.4 moveto
56017.6 74433.4 lineto
stroke
newpath
56017.6 75147.4 moveto
55303.7 74433.4 lineto
stroke
newpath
57173.2 77017 moveto
57887.2 76303 lineto
stroke
newpath
57887.2 77017 moveto
57173.2 76303 lineto
stroke
newpath
57173.2 75147.4 moveto
57887.2 74433.4 lineto
stroke
newpath
57887.2 75147.4 moveto
57173.2 74433.4 lineto
stroke
newpath
59042.8 77017 moveto
59756.8 76303 lineto
stroke
newpath
59756.8 77017 moveto
59042.8 76303 lineto
stroke
newpath
59042.8 75147.4 moveto
59756.8 74433.4 lineto
stroke
newpath
59756.8 75147.4 moveto
59042.8 74433.4 lineto
stroke
newpath
60912.4 77017 moveto
61626.3 76303 lineto
stroke
newpath
61626.3 77017 moveto
60912.4 76303 lineto
stroke
newpath
60912.4 75147.4 moveto
61626.3 74433.4 lineto
stroke
newpath
61626.3 75147.4 moveto
60912.4 74433.4 lineto
stroke
newpath
62781.9 77017 moveto
63495.9 76303 lineto
stroke
newpath
63495.9 77017 moveto
62781.9 76303 lineto
stroke
newpath
62781.9 75147.4 moveto
63495.9 74433.4 lineto
stroke
newpath
63495.9 75147.4 moveto
62781.9 74433.4 lineto
stroke
newpath
64651.5 77017 moveto
65365.5 76303 lineto
stroke
newpath
65365.5 77017 moveto
64651.5 76303 lineto
stroke
newpath
64651.5 75147.4 moveto
65365.5 74433.4 lineto
stroke
newpath
65365.5 75147.4 moveto
64651.5 74433.4 lineto
stroke
newpath
66521.1 77017 moveto
67235 76303 lineto
stroke
newpath
67235 77017 moveto
66521.1 76303 lineto
stroke
newpath
66521.1 75147.4 moveto
67235 74433.4 lineto
stroke
newpath
67235 75147.4 moveto
66521.1 74433.4 lineto
stroke
newpath
68390.6 77017 moveto
69104.6 76303 lineto
stroke
newpath
69104.6 77017 moveto
68390.6 76303 lineto
stroke
newpath
68390.6 75147.4 moveto
69104.6 74433.4 lineto
stroke
newpath
69104.6 75147.4 moveto
68390.6 74433.4 lineto
stroke
newpath
70260.2 77017 moveto
70974.2 76303 lineto
stroke
newpath
70974.2 77017 moveto
70260.2 76303 lineto
stroke
newpath
70260.2 75147.4 moveto
70974.2 74433.4 lineto
stroke
newpath
70974.2 75147.4 moveto
70260.2 74433.4 lineto
stroke
newpath
72129.8 77017 moveto
72843.7 76303 lineto
stroke
newpath
72843.7 77017 moveto
72129.8 76303 lineto
stroke
newpath
72129.8 75147.4 moveto
72843.7 74433.4 lineto
stroke
newpath
72843.7 75147.4 moveto
72129.8 74433.4 lineto
stroke
newpath
73999.3 77017 moveto
74713.3 76303 lineto
stroke
newpath
74713.3 77017 moveto
73999.3 76303 lineto
stroke
newpath
73999.3 75147.4 moveto
74713.3 74433.4 lineto
stroke
newpath
74713.3 75147.4 moveto
73999.3 74433.4 lineto
stroke
newpath
75868.9 77017 moveto
76582.8 76303 lineto
stroke
newpath
76582.8 77017 moveto
75868.9 76303 lineto
stroke
newpath
75868.9 75147.4 moveto
76582.8 74433.4 lineto
stroke
newpath
76582.8 75147.4 moveto
75868.9 74433.4 lineto
stroke
79810.4 75725.2 993.666 cir0
79810.4 39658.8 993.666 cir0
37119.6 75725.2 993.666 cir0
37119.6 39658.8 993.666 cir0
118.11 setlinewidth
0 0 0 setrgbcolor
0 0 0 setrgbcolor
newpath
35597.5 35175.5 moveto
35597.5 36356.6 lineto
35878.7 36356.6 lineto
36047.4 36300.3 lineto
36159.9 36187.9 lineto
36216.1 36075.4 lineto
36272.4 35850.4 lineto
36272.4 35681.7 lineto
36216.1 35456.7 lineto
36159.9 35344.2 lineto
36047.4 35231.7 lineto
35878.7 35175.5 lineto
35597.5 35175.5 lineto
stroke
newpath
36778.6 35175.5 moveto
36778.6 35962.9 lineto
stroke
newpath
36778.6 35737.9 moveto
36834.8 35850.4 lineto
36891.1 35906.6 lineto
37003.5 35962.9 lineto
37116 35962.9 lineto
stroke
newpath
37509.7 35175.5 moveto
37509.7 35962.9 lineto
stroke
newpath
37509.7 36356.6 moveto
37453.5 36300.3 lineto
37509.7 36244.1 lineto
37566 36300.3 lineto
37509.7 36356.6 lineto
37509.7 36244.1 lineto
stroke
newpath
38240.9 35175.5 moveto
38128.4 35231.7 lineto
38072.2 35344.2 lineto
38072.2 36356.6 lineto
stroke
newpath
38859.6 35175.5 moveto
38747.1 35231.7 lineto
38690.8 35344.2 lineto
38690.8 36356.6 lineto
stroke
newpath
40209.4 35175.5 moveto
40209.4 36356.6 lineto
40603.1 35512.9 lineto
40996.8 36356.6 lineto
40996.8 35175.5 lineto
stroke
newpath
42065.4 35175.5 moveto
42065.4 35794.2 lineto
42009.2 35906.6 lineto
41896.7 35962.9 lineto
41671.7 35962.9 lineto
41559.2 35906.6 lineto
stroke
newpath
42065.4 35231.7 moveto
41952.9 35175.5 lineto
41671.7 35175.5 lineto
41559.2 35231.7 lineto
41503 35344.2 lineto
41503 35456.7 lineto
41559.2 35569.2 lineto
41671.7 35625.4 lineto
41952.9 35625.4 lineto
42065.4 35681.7 lineto
stroke
newpath
42627.8 35962.9 moveto
42627.8 34781.8 lineto
stroke
newpath
42627.8 35906.6 moveto
42740.3 35962.9 lineto
42965.3 35962.9 lineto
43077.8 35906.6 lineto
43134 35850.4 lineto
43190.3 35737.9 lineto
43190.3 35400.5 lineto
43134 35288 lineto
43077.8 35231.7 lineto
42965.3 35175.5 lineto
42740.3 35175.5 lineto
42627.8 35231.7 lineto
stroke
newpath
43696.5 35288 moveto
43752.7 35231.7 lineto
43696.5 35175.5 lineto
43640.2 35231.7 lineto
43696.5 35288 lineto
43696.5 35175.5 lineto
stroke
newpath
43696.5 35906.6 moveto
43752.7 35850.4 lineto
43696.5 35794.2 lineto
43640.2 35850.4 lineto
43696.5 35906.6 lineto
43696.5 35794.2 lineto
stroke
newpath
33755.8 33586.5 moveto
34469.8 32872.5 lineto
stroke
newpath
34469.8 33586.5 moveto
33755.8 32872.5 lineto
stroke
0 0 0 setrgbcolor
0 0 0 setrgbcolor
newpath
35822.4 33876.3 moveto
35934.9 33876.3 lineto
36047.4 33820 lineto
36103.7 33763.8 lineto
36159.9 33651.3 lineto
36216.1 33426.3 lineto
36216.1 33145.1 lineto
36159.9 32920.1 lineto
36103.7 32807.7 lineto
36047.4 32751.4 lineto
35934.9 32695.2 lineto
35822.4 32695.2 lineto
35710 32751.4 lineto
35653.7 32807.7 lineto
35597.5 32920.1 lineto
35541.2 33145.1 lineto
35541.2 33426.3 lineto
35597.5 33651.3 lineto
35653.7 33763.8 lineto
35710 33820 lineto
35822.4 33876.3 lineto
stroke
newpath
36722.3 32807.7 moveto
36778.6 32751.4 lineto
36722.3 32695.2 lineto
36666.1 32751.4 lineto
36722.3 32807.7 lineto
36722.3 32695.2 lineto
stroke
newpath
37341 32695.2 moveto
37566 32695.2 lineto
37678.5 32751.4 lineto
37734.7 32807.7 lineto
37847.2 32976.4 lineto
37903.4 33201.4 lineto
37903.4 33651.3 lineto
37847.2 33763.8 lineto
37790.9 33820 lineto
37678.5 33876.3 lineto
37453.5 33876.3 lineto
37341 33820 lineto
37284.8 33763.8 lineto
37228.5 33651.3 lineto
37228.5 33370.1 lineto
37284.8 33257.6 lineto
37341 33201.4 lineto
37453.5 33145.1 lineto
37678.5 33145.1 lineto
37790.9 33201.4 lineto
37847.2 33257.6 lineto
37903.4 33370.1 lineto
stroke
newpath
38297.1 33876.3 moveto
39084.5 33876.3 lineto
38578.3 32695.2 lineto
stroke
newpath
39534.5 32695.2 moveto
39534.5 33482.6 lineto
stroke
newpath
39534.5 33370.1 moveto
39590.7 33426.3 lineto
39703.2 33482.6 lineto
39871.9 33482.6 lineto
39984.4 33426.3 lineto
40040.7 33313.8 lineto
40040.7 32695.2 lineto
stroke
newpath
40040.7 33313.8 moveto
40096.9 33426.3 lineto
40209.4 33482.6 lineto
40378.1 33482.6 lineto
40490.6 33426.3 lineto
40546.9 33313.8 lineto
40546.9 32695.2 lineto
stroke
newpath
41109.3 32695.2 moveto
41109.3 33482.6 lineto
stroke
newpath
41109.3 33370.1 moveto
41165.5 33426.3 lineto
41278 33482.6 lineto
41446.7 33482.6 lineto
41559.2 33426.3 lineto
41615.5 33313.8 lineto
41615.5 32695.2 lineto
stroke
newpath
41615.5 33313.8 moveto
41671.7 33426.3 lineto
41784.2 33482.6 lineto
41952.9 33482.6 lineto
42065.4 33426.3 lineto
42121.7 33313.8 lineto
42121.7 32695.2 lineto
stroke
newpath
44427.6 33932.5 moveto
43415.2 32414 lineto
stroke
newpath
45946.2 33876.3 moveto
46058.7 33876.3 lineto
46171.2 33820 lineto
46227.4 33763.8 lineto
46283.6 33651.3 lineto
46339.9 33426.3 lineto
46339.9 33145.1 lineto
46283.6 32920.1 lineto
46227.4 32807.7 lineto
46171.2 32751.4 lineto
46058.7 32695.2 lineto
45946.2 32695.2 lineto
45833.7 32751.4 lineto
45777.5 32807.7 lineto
45721.2 32920.1 lineto
45665 33145.1 lineto
45665 33426.3 lineto
45721.2 33651.3 lineto
45777.5 33763.8 lineto
45833.7 33820 lineto
45946.2 33876.3 lineto
stroke
newpath
46846.1 32807.7 moveto
46902.3 32751.4 lineto
46846.1 32695.2 lineto
46789.8 32751.4 lineto
46846.1 32807.7 lineto
46846.1 32695.2 lineto
stroke
newpath
47633.5 33876.3 moveto
47746 33876.3 lineto
47858.4 33820 lineto
47914.7 33763.8 lineto
47970.9 33651.3 lineto
48027.2 33426.3 lineto
48027.2 33145.1 lineto
47970.9 32920.1 lineto
47914.7 32807.7 lineto
47858.4 32751.4 lineto
47746 32695.2 lineto
47633.5 32695.2 lineto
47521 32751.4 lineto
47464.7 32807.7 lineto
47408.5 32920.1 lineto
47352.3 33145.1 lineto
47352.3 33426.3 lineto
47408.5 33651.3 lineto
47464.7 33763.8 lineto
47521 33820 lineto
47633.5 33876.3 lineto
stroke
newpath
48420.9 33876.3 moveto
49152 33876.3 lineto
48758.3 33426.3 lineto
48927.1 33426.3 lineto
49039.5 33370.1 lineto
49095.8 33313.8 lineto
49152 33201.4 lineto
49152 32920.1 lineto
49095.8 32807.7 lineto
49039.5 32751.4 lineto
48927.1 32695.2 lineto
48589.6 32695.2 lineto
48477.1 32751.4 lineto
48420.9 32807.7 lineto
stroke
newpath
49826.9 33370.1 moveto
49714.5 33426.3 lineto
49658.2 33482.6 lineto
49602 33595.1 lineto
49602 33651.3 lineto
49658.2 33763.8 lineto
49714.5 33820 lineto
49826.9 33876.3 lineto
50051.9 33876.3 lineto
50164.4 33820 lineto
50220.6 33763.8 lineto
50276.9 33651.3 lineto
50276.9 33595.1 lineto
50220.6 33482.6 lineto
50164.4 33426.3 lineto
50051.9 33370.1 lineto
49826.9 33370.1 lineto
49714.5 33313.8 lineto
49658.2 33257.6 lineto
49602 33145.1 lineto
49602 32920.1 lineto
49658.2 32807.7 lineto
49714.5 32751.4 lineto
49826.9 32695.2 lineto
50051.9 32695.2 lineto
50164.4 32751.4 lineto
50220.6 32807.7 lineto
50276.9 32920.1 lineto
50276.9 33145.1 lineto
50220.6 33257.6 lineto
50164.4 33313.8 lineto
50051.9 33370.1 lineto
stroke
newpath
50726.8 33876.3 moveto
50726.8 33651.3 lineto
stroke
newpath
51176.8 33876.3 moveto
51176.8 33651.3 lineto
stroke
newpath
52920.3 32245.2 moveto
52864.1 32301.5 lineto
52751.6 32470.2 lineto
52695.3 32582.7 lineto
52639.1 32751.4 lineto
52582.9 33032.6 lineto
52582.9 33257.6 lineto
52639.1 33538.8 lineto
52695.3 33707.5 lineto
52751.6 33820 lineto
52864.1 33988.8 lineto
52920.3 34045 lineto
stroke
newpath
53876.4 33482.6 moveto
53876.4 32695.2 lineto
stroke
newpath
53595.2 33932.5 moveto
53314 33088.9 lineto
54045.2 33088.9 lineto
stroke
newpath
54720.1 33876.3 moveto
54832.6 33876.3 lineto
54945.1 33820 lineto
55001.3 33763.8 lineto
55057.5 33651.3 lineto
55113.8 33426.3 lineto
55113.8 33145.1 lineto
55057.5 32920.1 lineto
55001.3 32807.7 lineto
54945.1 32751.4 lineto
54832.6 32695.2 lineto
54720.1 32695.2 lineto
54607.6 32751.4 lineto
54551.4 32807.7 lineto
54495.1 32920.1 lineto
54438.9 33145.1 lineto
54438.9 33426.3 lineto
54495.1 33651.3 lineto
54551.4 33763.8 lineto
54607.6 33820 lineto
54720.1 33876.3 lineto
stroke
newpath
56519.9 32695.2 moveto
56519.9 33876.3 lineto
stroke
newpath
57026 32695.2 moveto
57026 33313.8 lineto
56969.8 33426.3 lineto
56857.3 33482.6 lineto
56688.6 33482.6 lineto
56576.1 33426.3 lineto
56519.9 33370.1 lineto
stroke
newpath
57757.2 32695.2 moveto
57644.7 32751.4 lineto
57588.5 32807.7 lineto
57532.2 32920.1 lineto
57532.2 33257.6 lineto
57588.5 33370.1 lineto
57644.7 33426.3 lineto
57757.2 33482.6 lineto
57925.9 33482.6 lineto
58038.4 33426.3 lineto
58094.7 33370.1 lineto
58150.9 33257.6 lineto
58150.9 32920.1 lineto
58094.7 32807.7 lineto
58038.4 32751.4 lineto
57925.9 32695.2 lineto
57757.2 32695.2 lineto
stroke
newpath
58825.8 32695.2 moveto
58713.3 32751.4 lineto
58657.1 32863.9 lineto
58657.1 33876.3 lineto
stroke
newpath
59725.7 32751.4 moveto
59613.2 32695.2 lineto
59388.3 32695.2 lineto
59275.8 32751.4 lineto
59219.5 32863.9 lineto
59219.5 33313.8 lineto
59275.8 33426.3 lineto
59388.3 33482.6 lineto
59613.2 33482.6 lineto
59725.7 33426.3 lineto
59782 33313.8 lineto
59782 33201.4 lineto
59219.5 33088.9 lineto
stroke
newpath
60231.9 32751.4 moveto
60344.4 32695.2 lineto
60569.4 32695.2 lineto
60681.8 32751.4 lineto
60738.1 32863.9 lineto
60738.1 32920.1 lineto
60681.8 33032.6 lineto
60569.4 33088.9 lineto
60400.6 33088.9 lineto
60288.1 33145.1 lineto
60231.9 33257.6 lineto
60231.9 33313.8 lineto
60288.1 33426.3 lineto
60400.6 33482.6 lineto
60569.4 33482.6 lineto
60681.8 33426.3 lineto
stroke
newpath
61131.8 32245.2 moveto
61188 32301.5 lineto
61300.5 32470.2 lineto
61356.8 32582.7 lineto
61413 32751.4 lineto
61469.2 33032.6 lineto
61469.2 33257.6 lineto
61413 33538.8 lineto
61356.8 33707.5 lineto
61300.5 33820 lineto
61188 33988.8 lineto
61131.8 34045 lineto
stroke
newpath
63269 32245.2 moveto
63212.8 32301.5 lineto
63100.3 32470.2 lineto
63044 32582.7 lineto
62987.8 32751.4 lineto
62931.6 33032.6 lineto
62931.6 33257.6 lineto
62987.8 33538.8 lineto
63044 33707.5 lineto
63100.3 33820 lineto
63212.8 33988.8 lineto
63269 34045 lineto
stroke
newpath
63719 33482.6 moveto
63719 32695.2 lineto
stroke
newpath
63719 33370.1 moveto
63775.2 33426.3 lineto
63887.7 33482.6 lineto
64056.4 33482.6 lineto
64168.9 33426.3 lineto
64225.1 33313.8 lineto
64225.1 32695.2 lineto
stroke
newpath
64956.3 32695.2 moveto
64843.8 32751.4 lineto
64787.6 32807.7 lineto
64731.3 32920.1 lineto
64731.3 33257.6 lineto
64787.6 33370.1 lineto
64843.8 33426.3 lineto
64956.3 33482.6 lineto
65125 33482.6 lineto
65237.5 33426.3 lineto
65293.8 33370.1 lineto
65350 33257.6 lineto
65350 32920.1 lineto
65293.8 32807.7 lineto
65237.5 32751.4 lineto
65125 32695.2 lineto
64956.3 32695.2 lineto
stroke
newpath
65687.5 33482.6 moveto
66137.4 33482.6 lineto
stroke
newpath
65856.2 33876.3 moveto
65856.2 32863.9 lineto
65912.4 32751.4 lineto
66024.9 32695.2 lineto
66137.4 32695.2 lineto
stroke
newpath
67431 33482.6 moveto
67431 32301.5 lineto
stroke
newpath
67431 33426.3 moveto
67543.5 33482.6 lineto
67768.5 33482.6 lineto
67880.9 33426.3 lineto
67937.2 33370.1 lineto
67993.4 33257.6 lineto
67993.4 32920.1 lineto
67937.2 32807.7 lineto
67880.9 32751.4 lineto
67768.5 32695.2 lineto
67543.5 32695.2 lineto
67431 32751.4 lineto
stroke
newpath
68668.3 32695.2 moveto
68555.9 32751.4 lineto
68499.6 32863.9 lineto
68499.6 33876.3 lineto
stroke
newpath
69624.5 32695.2 moveto
69624.5 33313.8 lineto
69568.2 33426.3 lineto
69455.7 33482.6 lineto
69230.8 33482.6 lineto
69118.3 33426.3 lineto
stroke
newpath
69624.5 32751.4 moveto
69512 32695.2 lineto
69230.8 32695.2 lineto
69118.3 32751.4 lineto
69062 32863.9 lineto
69062 32976.4 lineto
69118.3 33088.9 lineto
69230.8 33145.1 lineto
69512 33145.1 lineto
69624.5 33201.4 lineto
stroke
newpath
70018.2 33482.6 moveto
70468.1 33482.6 lineto
stroke
newpath
70186.9 33876.3 moveto
70186.9 32863.9 lineto
70243.1 32751.4 lineto
70355.6 32695.2 lineto
70468.1 32695.2 lineto
stroke
newpath
71311.8 32751.4 moveto
71199.3 32695.2 lineto
70974.3 32695.2 lineto
70861.8 32751.4 lineto
70805.6 32863.9 lineto
70805.6 33313.8 lineto
70861.8 33426.3 lineto
70974.3 33482.6 lineto
71199.3 33482.6 lineto
71311.8 33426.3 lineto
71368 33313.8 lineto
71368 33201.4 lineto
70805.6 33088.9 lineto
stroke
newpath
72380.4 32695.2 moveto
72380.4 33876.3 lineto
stroke
newpath
72380.4 32751.4 moveto
72267.9 32695.2 lineto
72042.9 32695.2 lineto
71930.4 32751.4 lineto
71874.2 32807.7 lineto
71818 32920.1 lineto
71818 33257.6 lineto
71874.2 33370.1 lineto
71930.4 33426.3 lineto
72042.9 33482.6 lineto
72267.9 33482.6 lineto
72380.4 33426.3 lineto
stroke
newpath
72830.3 32245.2 moveto
72886.6 32301.5 lineto
72999.1 32470.2 lineto
73055.3 32582.7 lineto
73111.5 32751.4 lineto
73167.8 33032.6 lineto
73167.8 33257.6 lineto
73111.5 33538.8 lineto
73055.3 33707.5 lineto
72999.1 33820 lineto
72886.6 33988.8 lineto
72830.3 34045 lineto
stroke
33476.1 31670.4 993.666 cir0
0 0 0 setrgbcolor
0 0 0 setrgbcolor
newpath
35541.2 32204.7 moveto
35597.5 32261 lineto
35710 32317.2 lineto
35991.2 32317.2 lineto
36103.7 32261 lineto
36159.9 32204.7 lineto
36216.1 32092.2 lineto
36216.1 31979.8 lineto
36159.9 31811 lineto
35485 31136.1 lineto
36216.1 31136.1 lineto
stroke
newpath
36722.3 31248.6 moveto
36778.6 31192.4 lineto
36722.3 31136.1 lineto
36666.1 31192.4 lineto
36722.3 31248.6 lineto
36722.3 31136.1 lineto
stroke
newpath
37172.3 32317.2 moveto
37959.7 32317.2 lineto
37453.5 31136.1 lineto
stroke
newpath
38634.6 32317.2 moveto
38747.1 32317.2 lineto
38859.6 32261 lineto
38915.8 32204.7 lineto
38972 32092.2 lineto
39028.3 31867.3 lineto
39028.3 31586.1 lineto
38972 31361.1 lineto
38915.8 31248.6 lineto
38859.6 31192.4 lineto
38747.1 31136.1 lineto
38634.6 31136.1 lineto
38522.1 31192.4 lineto
38465.9 31248.6 lineto
38409.6 31361.1 lineto
38353.4 31586.1 lineto
38353.4 31867.3 lineto
38409.6 32092.2 lineto
38465.9 32204.7 lineto
38522.1 32261 lineto
38634.6 32317.2 lineto
stroke
newpath
39534.5 31136.1 moveto
39534.5 31923.5 lineto
stroke
newpath
39534.5 31811 moveto
39590.7 31867.3 lineto
39703.2 31923.5 lineto
39871.9 31923.5 lineto
39984.4 31867.3 lineto
40040.7 31754.8 lineto
40040.7 31136.1 lineto
stroke
newpath
40040.7 31754.8 moveto
40096.9 31867.3 lineto
40209.4 31923.5 lineto
40378.1 31923.5 lineto
40490.6 31867.3 lineto
40546.9 31754.8 lineto
40546.9 31136.1 lineto
stroke
newpath
41109.3 31136.1 moveto
41109.3 31923.5 lineto
stroke
newpath
41109.3 31811 moveto
41165.5 31867.3 lineto
41278 31923.5 lineto
41446.7 31923.5 lineto
41559.2 31867.3 lineto
41615.5 31754.8 lineto
41615.5 31136.1 lineto
stroke
newpath
41615.5 31754.8 moveto
41671.7 31867.3 lineto
41784.2 31923.5 lineto
41952.9 31923.5 lineto
42065.4 31867.3 lineto
42121.7 31754.8 lineto
42121.7 31136.1 lineto
stroke
newpath
44427.6 32373.5 moveto
43415.2 30854.9 lineto
stroke
newpath
45946.2 32317.2 moveto
46058.7 32317.2 lineto
46171.2 32261 lineto
46227.4 32204.7 lineto
46283.6 32092.2 lineto
46339.9 31867.3 lineto
46339.9 31586.1 lineto
46283.6 31361.1 lineto
46227.4 31248.6 lineto
46171.2 31192.4 lineto
46058.7 31136.1 lineto
45946.2 31136.1 lineto
45833.7 31192.4 lineto
45777.5 31248.6 lineto
45721.2 31361.1 lineto
45665 31586.1 lineto
45665 31867.3 lineto
45721.2 32092.2 lineto
45777.5 32204.7 lineto
45833.7 32261 lineto
45946.2 32317.2 lineto
stroke
newpath
46846.1 31248.6 moveto
46902.3 31192.4 lineto
46846.1 31136.1 lineto
46789.8 31192.4 lineto
46846.1 31248.6 lineto
46846.1 31136.1 lineto
stroke
newpath
48027.2 31136.1 moveto
47352.3 31136.1 lineto
stroke
newpath
47689.7 31136.1 moveto
47689.7 32317.2 lineto
47577.2 32148.5 lineto
47464.7 32036 lineto
47352.3 31979.8 lineto
stroke
newpath
48758.3 32317.2 moveto
48870.8 32317.2 lineto
48983.3 32261 lineto
49039.5 32204.7 lineto
49095.8 32092.2 lineto
49152 31867.3 lineto
49152 31586.1 lineto
49095.8 31361.1 lineto
49039.5 31248.6 lineto
48983.3 31192.4 lineto
48870.8 31136.1 lineto
48758.3 31136.1 lineto
48645.8 31192.4 lineto
48589.6 31248.6 lineto
48533.4 31361.1 lineto
48477.1 31586.1 lineto
48477.1 31867.3 lineto
48533.4 32092.2 lineto
48589.6 32204.7 lineto
48645.8 32261 lineto
48758.3 32317.2 lineto
stroke
newpath
50164.4 32317.2 moveto
49939.4 32317.2 lineto
49826.9 32261 lineto
49770.7 32204.7 lineto
49658.2 32036 lineto
49602 31811 lineto
49602 31361.1 lineto
49658.2 31248.6 lineto
49714.5 31192.4 lineto
49826.9 31136.1 lineto
50051.9 31136.1 lineto
50164.4 31192.4 lineto
50220.6 31248.6 lineto
50276.9 31361.1 lineto
50276.9 31642.3 lineto
50220.6 31754.8 lineto
50164.4 31811 lineto
50051.9 31867.3 lineto
49826.9 31867.3 lineto
49714.5 31811 lineto
49658.2 31754.8 lineto
49602 31642.3 lineto
stroke
newpath
50726.8 32317.2 moveto
50726.8 32092.2 lineto
stroke
newpath
51176.8 32317.2 moveto
51176.8 32092.2 lineto
stroke
newpath
52920.3 30686.2 moveto
52864.1 30742.4 lineto
52751.6 30911.1 lineto
52695.3 31023.6 lineto
52639.1 31192.4 lineto
52582.9 31473.6 lineto
52582.9 31698.5 lineto
52639.1 31979.8 lineto
52695.3 32148.5 lineto
52751.6 32261 lineto
52864.1 32429.7 lineto
52920.3 32485.9 lineto
stroke
newpath
53876.4 31923.5 moveto
53876.4 31136.1 lineto
stroke
newpath
53595.2 32373.5 moveto
53314 31529.8 lineto
54045.2 31529.8 lineto
stroke
newpath
55395 31136.1 moveto
55395 32317.2 lineto
stroke
newpath
55901.2 31136.1 moveto
55901.2 31754.8 lineto
55844.9 31867.3 lineto
55732.5 31923.5 lineto
55563.7 31923.5 lineto
55451.2 31867.3 lineto
55395 31811 lineto
stroke
newpath
56632.3 31136.1 moveto
56519.9 31192.4 lineto
56463.6 31248.6 lineto
56407.4 31361.1 lineto
56407.4 31698.5 lineto
56463.6 31811 lineto
56519.9 31867.3 lineto
56632.3 31923.5 lineto
56801.1 31923.5 lineto
56913.6 31867.3 lineto
56969.8 31811 lineto
57026 31698.5 lineto
57026 31361.1 lineto
56969.8 31248.6 lineto
56913.6 31192.4 lineto
56801.1 31136.1 lineto
56632.3 31136.1 lineto
stroke
newpath
57701 31136.1 moveto
57588.5 31192.4 lineto
57532.2 31304.8 lineto
57532.2 32317.2 lineto
stroke
newpath
58600.9 31192.4 moveto
58488.4 31136.1 lineto
58263.4 31136.1 lineto
58150.9 31192.4 lineto
58094.7 31304.8 lineto
58094.7 31754.8 lineto
58150.9 31867.3 lineto
58263.4 31923.5 lineto
58488.4 31923.5 lineto
58600.9 31867.3 lineto
58657.1 31754.8 lineto
58657.1 31642.3 lineto
58094.7 31529.8 lineto
stroke
newpath
59107 31192.4 moveto
59219.5 31136.1 lineto
59444.5 31136.1 lineto
59557 31192.4 lineto
59613.2 31304.8 lineto
59613.2 31361.1 lineto
59557 31473.6 lineto
59444.5 31529.8 lineto
59275.8 31529.8 lineto
59163.3 31586.1 lineto
59107 31698.5 lineto
59107 31754.8 lineto
59163.3 31867.3 lineto
59275.8 31923.5 lineto
59444.5 31923.5 lineto
59557 31867.3 lineto
stroke
newpath
60006.9 30686.2 moveto
60063.2 30742.4 lineto
60175.7 30911.1 lineto
60231.9 31023.6 lineto
60288.1 31192.4 lineto
60344.4 31473.6 lineto
60344.4 31698.5 lineto
60288.1 31979.8 lineto
60231.9 32148.5 lineto
60175.7 32261 lineto
60063.2 32429.7 lineto
60006.9 32485.9 lineto
stroke
newpath
62144.2 30686.2 moveto
62087.9 30742.4 lineto
61975.4 30911.1 lineto
61919.2 31023.6 lineto
61862.9 31192.4 lineto
61806.7 31473.6 lineto
61806.7 31698.5 lineto
61862.9 31979.8 lineto
61919.2 32148.5 lineto
61975.4 32261 lineto
62087.9 32429.7 lineto
62144.2 32485.9 lineto
stroke
newpath
62594.1 31923.5 moveto
62594.1 31136.1 lineto
stroke
newpath
62594.1 31811 moveto
62650.3 31867.3 lineto
62762.8 31923.5 lineto
62931.6 31923.5 lineto
63044 31867.3 lineto
63100.3 31754.8 lineto
63100.3 31136.1 lineto
stroke
newpath
63831.4 31136.1 moveto
63719 31192.4 lineto
63662.7 31248.6 lineto
63606.5 31361.1 lineto
63606.5 31698.5 lineto
63662.7 31811 lineto
63719 31867.3 lineto
63831.4 31923.5 lineto
64000.2 31923.5 lineto
64112.7 31867.3 lineto
64168.9 31811 lineto
64225.1 31698.5 lineto
64225.1 31361.1 lineto
64168.9 31248.6 lineto
64112.7 31192.4 lineto
64000.2 31136.1 lineto
63831.4 31136.1 lineto
stroke
newpath
64562.6 31923.5 moveto
65012.6 31923.5 lineto
stroke
newpath
64731.3 32317.2 moveto
64731.3 31304.8 lineto
64787.6 31192.4 lineto
64900.1 31136.1 lineto
65012.6 31136.1 lineto
stroke
newpath
66306.1 31923.5 moveto
66306.1 30742.4 lineto
stroke
newpath
66306.1 31867.3 moveto
66418.6 31923.5 lineto
66643.6 31923.5 lineto
66756.1 31867.3 lineto
66812.3 31811 lineto
66868.6 31698.5 lineto
66868.6 31361.1 lineto
66812.3 31248.6 lineto
66756.1 31192.4 lineto
66643.6 31136.1 lineto
66418.6 31136.1 lineto
66306.1 31192.4 lineto
stroke
newpath
67543.5 31136.1 moveto
67431 31192.4 lineto
67374.8 31304.8 lineto
67374.8 32317.2 lineto
stroke
newpath
68499.6 31136.1 moveto
68499.6 31754.8 lineto
68443.4 31867.3 lineto
68330.9 31923.5 lineto
68105.9 31923.5 lineto
67993.4 31867.3 lineto
stroke
newpath
68499.6 31192.4 moveto
68387.1 31136.1 lineto
68105.9 31136.1 lineto
67993.4 31192.4 lineto
67937.2 31304.8 lineto
67937.2 31417.3 lineto
67993.4 31529.8 lineto
68105.9 31586.1 lineto
68387.1 31586.1 lineto
68499.6 31642.3 lineto
stroke
newpath
68893.3 31923.5 moveto
69343.3 31923.5 lineto
stroke
newpath
69062 32317.2 moveto
69062 31304.8 lineto
69118.3 31192.4 lineto
69230.8 31136.1 lineto
69343.3 31136.1 lineto
stroke
newpath
70186.9 31192.4 moveto
70074.4 31136.1 lineto
69849.4 31136.1 lineto
69737 31192.4 lineto
69680.7 31304.8 lineto
69680.7 31754.8 lineto
69737 31867.3 lineto
69849.4 31923.5 lineto
70074.4 31923.5 lineto
70186.9 31867.3 lineto
70243.1 31754.8 lineto
70243.1 31642.3 lineto
69680.7 31529.8 lineto
stroke
newpath
71255.5 31136.1 moveto
71255.5 32317.2 lineto
stroke
newpath
71255.5 31192.4 moveto
71143 31136.1 lineto
70918.1 31136.1 lineto
70805.6 31192.4 lineto
70749.3 31248.6 lineto
70693.1 31361.1 lineto
70693.1 31698.5 lineto
70749.3 31811 lineto
70805.6 31867.3 lineto
70918.1 31923.5 lineto
71143 31923.5 lineto
71255.5 31867.3 lineto
stroke
newpath
71705.5 30686.2 moveto
71761.7 30742.4 lineto
71874.2 30911.1 lineto
71930.4 31023.6 lineto
71986.7 31192.4 lineto
72042.9 31473.6 lineto
72042.9 31698.5 lineto
71986.7 31979.8 lineto
71930.4 32148.5 lineto
71874.2 32261 lineto
71761.7 32429.7 lineto
71705.5 32485.9 lineto
stroke
showpage
grestore
%%EOF
